127.0.0.1	localhost
127.0.0.1   atlian


 
# The following lines are desirable for IPv6 capable hosts
::1     ip6-localhost ip6-loopback
fe00::0 ip6-localnet
ff00::0 ip6-mcastprefix
ff02::1 ip6-allnodes
ff02::2 ip6-allrouters

############################################
# To Completely Block Facebook
# Add these entries below to your hosts file
#
# Your hosts file Location:
# Linux, Unix and Mac OS X  -> /etc/hosts
# Windows XP, Vista, Windows 7, 8.0, 8.1, 10 ->  C:\WINDOWS\system32\drivers\etc\hosts
# Windows 2000  -> C:\WINNT\system32\drivers\etc\hosts
# Windows 98/ME ->  C:\WINDOWS\hosts 
#
# You can edit the hosts file with any text editor
#
# On Windows 7 and higher, the default AV security scan will try to remove the
# facebook.com entry; you'll need to add an exception to tell the OS
# to keep the block listing in the hosts file and not to remove it
#
############################################

0.0.0.0 apps.facebook.com
0.0.0.0 connect.facebook.net
0.0.0.0 facebook.com
0.0.0.0 fbcdn.com
0.0.0.0 fbsbx.com
0.0.0.0 fbcdn.net
0.0.0.0 graph.facebook.com
0.0.0.0 login.facebook.com
0.0.0.0 s-static.ak.facebook.com
0.0.0.0 static.ak.connect.facebook.com
0.0.0.0 static.ak.fbcdn.net
0.0.0.0 www.connect.facebook.net
0.0.0.0 www.facebook.com
0.0.0.0 www.fbcdn.com
0.0.0.0 www.fbcdn.net
0.0.0.0 www.graph.facebook.com
0.0.0.0 www.login.facebook.com
0.0.0.0 www.s-static.ak.facebook.com
0.0.0.0 www.static.ak.connect.facebook.com
0.0.0.0 www.static.ak.fbcdn.net
0.0.0.0 0-edge-chat.facebook.com
0.0.0.0 1-edge-chat.facebook.com
0.0.0.0 2-edge-chat.facebook.com
0.0.0.0 3-edge-chat.facebook.com
0.0.0.0 4-edge-chat.facebook.com
0.0.0.0 5-edge-chat.facebook.com
0.0.0.0 6-edge-chat.facebook.com
0.0.0.0 alpha-shv-03-ash5.facebook.com
0.0.0.0 alpha-shv-03-atn1.facebook.com
0.0.0.0 alpha-shv-03-lla1.facebook.com
0.0.0.0 alpha-shv-04-prn2.facebook.com
0.0.0.0 alpha-shv-09-frc1.facebook.com
0.0.0.0 alpha.vvv.facebook.com
0.0.0.0 a.ns.facebook.com
0.0.0.0 api.facebook.com
0.0.0.0 atlasalpha-shv-09-frc3.facebook.com
0.0.0.0 atlas.c10r.facebook.com
0.0.0.0 atlasinyour-shv-05-ash3.facebook.com
0.0.0.0 atlas-shv-01-prn2.facebook.com
0.0.0.0 atlas-shv-04-lla1.facebook.com
0.0.0.0 atlas-shv-05-ash3.facebook.com
0.0.0.0 atlas-shv-06-ash2.facebook.com
0.0.0.0 atlas-shv-06-frc1.facebook.com
0.0.0.0 atlas-shv-07-lla1.facebook.com
0.0.0.0 atlas-shv-09-frc3.facebook.com
0.0.0.0 atlas-shv-13-prn1.facebook.com
0.0.0.0 atlas-www-shv-04-prn2.facebook.com
0.0.0.0 atlas-www-shv-07-ash4.facebook.com
0.0.0.0 atlas-www-shv-09-frc1.facebook.com
0.0.0.0 aura-11-01-snc7.facebook.com
0.0.0.0 badge.facebook.com
0.0.0.0 b-api.facebook.com
0.0.0.0 beta-chat-01-05-ash3.facebook.com
0.0.0.0 betanet-shv-03-atn1.facebook.com
0.0.0.0 betanet-shv-03-lla1.facebook.com
0.0.0.0 betanet-shv-04-prn2.facebook.com
0.0.0.0 betanet-shv-09-frc1.facebook.com
0.0.0.0 beta-shv-03-atn1.facebook.com
0.0.0.0 beta-shv-03-lla1.facebook.com
0.0.0.0 beta-shv-04-prn2.facebook.com
0.0.0.0 beta-shv-09-frc1.facebook.com
0.0.0.0 beta.vvv.facebook.com
0.0.0.0 b-graph.facebook.com
0.0.0.0 bidder-shv-05-frc3.facebook.com
0.0.0.0 bidder-shv-10-frc1.facebook.com
0.0.0.0 b.ns.facebook.com
0.0.0.0 channel-proxy-shv-04-frc3.facebook.com
0.0.0.0 channel-proxy-shv-06-ash2.facebook.com
0.0.0.0 channel-proxy-shv-07-ash2.facebook.com
0.0.0.0 channel-proxy-shv-13-prn1.facebook.com
0.0.0.0 channel-proxy-test-shv-07-ash2.facebook.com
0.0.0.0 code.facebook.com
0.0.0.0 connect.facebook.com
0.0.0.0 dev.vvv.facebook.com
0.0.0.0 d.vvv.facebook.com
0.0.0.0 edge-atlas-proxyprotocol-shv-01-ash5.facebook.com
0.0.0.0 edge-atlas-proxyprotocol-shv-03-ash5.facebook.com
0.0.0.0 edge-atlas-proxyprotocol-shv-07-ash4.facebook.com
0.0.0.0 edge-atlas-proxyprotocol-shv-07-frc3.facebook.com
0.0.0.0 edge-atlas-proxyprotocol-shv-09-frc1.facebook.com
0.0.0.0 edge-atlas-proxyprotocol-shv-12-frc1.facebook.com
0.0.0.0 edge-atlas-proxyprotocol-shv-12-frc3.facebook.com
0.0.0.0 edge-atlas-proxyprotocol-shv-13-frc1.facebook.com
0.0.0.0 edge-atlas-shv-01-ams2.facebook.com
0.0.0.0 edge-atlas-shv-01-ams3.facebook.com
0.0.0.0 edge-atlas-shv-01-ash5.facebook.com
0.0.0.0 edge-atlas-shv-01-atl1.facebook.com
0.0.0.0 edge-atlas-shv-01-bru2.facebook.com
0.0.0.0 edge-atlas-shv-01-cai1.facebook.com
0.0.0.0 edge-atlas-shv-01-cdg2.facebook.com
0.0.0.0 edge-atlas-shv-01-dfw1.facebook.com
0.0.0.0 edge-atlas-shv-01-fra3.facebook.com
0.0.0.0 edge-atlas-shv-01-gru1.facebook.com
0.0.0.0 edge-atlas-shv-01-hkg2.facebook.com
0.0.0.0 edge-atlas-shv-01-iad3.facebook.com
0.0.0.0 edge-atlas-shv-01-kul1.facebook.com
0.0.0.0 edge-atlas-shv-01-lax1.facebook.com
0.0.0.0 edge-atlas-shv-01-lga1.facebook.com
0.0.0.0 edge-atlas-shv-01-lhr3.facebook.com
0.0.0.0 edge-atlas-shv-01-mad1.facebook.com
0.0.0.0 edge-atlas-shv-01-mia1.facebook.com
0.0.0.0 edge-atlas-shv-01-mxp1.facebook.com
0.0.0.0 edge-atlas-shv-01-nrt1.facebook.com
0.0.0.0 edge-atlas-shv-01-ord1.facebook.com
0.0.0.0 edge-atlas-shv-01-sea1.facebook.com
0.0.0.0 edge-atlas-shv-01-sin1.facebook.com
0.0.0.0 edge-atlas-shv-01-sjc2.facebook.com
0.0.0.0 edge-atlas-shv-01-syd1.facebook.com
0.0.0.0 edge-atlas-shv-01-vie1.facebook.com
0.0.0.0 edge-atlas-shv-02-cai1.facebook.com
0.0.0.0 edge-atlas-shv-02-hkg2.facebook.com
0.0.0.0 edge-atlas-shv-03-ash5.facebook.com
0.0.0.0 edge-atlas-shv-03-atn1.facebook.com
0.0.0.0 edge-atlas-shv-03-hkg1.facebook.com
0.0.0.0 edge-atlas-shv-03-lla1.facebook.com
0.0.0.0 edge-atlas-shv-03-prn2.facebook.com
0.0.0.0 edge-atlas-shv-03-xdc1.facebook.com
0.0.0.0 edge-atlas-shv-04-hkg1.facebook.com
0.0.0.0 edge-atlas-shv-04-prn2.facebook.com
0.0.0.0 edge-atlas-shv-06-atn1.facebook.com
0.0.0.0 edge-atlas-shv-06-lla1.facebook.com
0.0.0.0 edge-atlas-shv-07-ash4.facebook.com
0.0.0.0 edge-atlas-shv-09-frc1.facebook.com
0.0.0.0 edge-atlas-shv-09-lla1.facebook.com
0.0.0.0 edge-atlas-shv-12-frc1.facebook.com
0.0.0.0 edge-atlas-shv-12-frc3.facebook.com
0.0.0.0 edge-atlas-shv-12-lla1.facebook.com
0.0.0.0 edge-atlas-shv-12-prn1.facebook.com
0.0.0.0 edge-atlas-shv-13-frc1.facebook.com
0.0.0.0 edge-atlas-shv-17-prn1.facebook.com
0.0.0.0 edge-atlas-shv-18-prn1.facebook.com
0.0.0.0 edge-chat.facebook.com
0.0.0.0 edge-liverail-shv-01-ams2.facebook.com
0.0.0.0 edge-liverail-shv-01-ams3.facebook.com
0.0.0.0 edge-liverail-shv-01-ash5.facebook.com
0.0.0.0 edge-liverail-shv-01-atl1.facebook.com
0.0.0.0 edge-liverail-shv-01-bru2.facebook.com
0.0.0.0 edge-liverail-shv-01-cai1.facebook.com
0.0.0.0 edge-liverail-shv-01-cdg2.facebook.com
0.0.0.0 edge-liverail-shv-01-dfw1.facebook.com
0.0.0.0 edge-liverail-shv-01-fra3.facebook.com
0.0.0.0 edge-liverail-shv-01-gru1.facebook.com
0.0.0.0 edge-liverail-shv-01-hkg2.facebook.com
0.0.0.0 edge-liverail-shv-01-iad3.facebook.com
0.0.0.0 edge-liverail-shv-01-kul1.facebook.com
0.0.0.0 edge-liverail-shv-01-lax1.facebook.com
0.0.0.0 edge-liverail-shv-01-lga1.facebook.com
0.0.0.0 edge-liverail-shv-01-lhr3.facebook.com
0.0.0.0 edge-liverail-shv-01-mad1.facebook.com
0.0.0.0 edge-liverail-shv-01-mia1.facebook.com
0.0.0.0 edge-liverail-shv-01-mxp1.facebook.com
0.0.0.0 edge-liverail-shv-01-nrt1.facebook.com
0.0.0.0 edge-liverail-shv-01-ord1.facebook.com
0.0.0.0 edge-liverail-shv-01-sea1.facebook.com
0.0.0.0 edge-liverail-shv-01-sin1.facebook.com
0.0.0.0 edge-liverail-shv-01-sjc2.facebook.com
0.0.0.0 edge-liverail-shv-01-syd1.facebook.com
0.0.0.0 edge-liverail-shv-01-tpe1.facebook.com
0.0.0.0 edge-liverail-shv-01-vie1.facebook.com
0.0.0.0 edge-liverail-shv-02-cai1.facebook.com
0.0.0.0 edge-liverail-shv-02-hkg2.facebook.com
0.0.0.0 edge-liverail-shv-03-ash5.facebook.com
0.0.0.0 edge-liverail-shv-03-atn1.facebook.com
0.0.0.0 edge-liverail-shv-03-hkg1.facebook.com
0.0.0.0 edge-liverail-shv-03-lla1.facebook.com
0.0.0.0 edge-liverail-shv-03-prn2.facebook.com
0.0.0.0 edge-liverail-shv-03-xdc1.facebook.com
0.0.0.0 edge-liverail-shv-04-hkg1.facebook.com
0.0.0.0 edge-liverail-shv-04-prn2.facebook.com
0.0.0.0 edge-liverail-shv-06-atn1.facebook.com
0.0.0.0 edge-liverail-shv-06-lla1.facebook.com
0.0.0.0 edge-liverail-shv-07-ash4.facebook.com
0.0.0.0 edge-liverail-shv-07-frc3.facebook.com
0.0.0.0 edge-liverail-shv-09-frc1.facebook.com
0.0.0.0 edge-liverail-shv-09-lla1.facebook.com
0.0.0.0 edge-liverail-shv-12-frc1.facebook.com
0.0.0.0 edge-liverail-shv-12-frc3.facebook.com
0.0.0.0 edge-liverail-shv-12-lla1.facebook.com
0.0.0.0 edge-liverail-shv-12-prn1.facebook.com
0.0.0.0 edge-liverail-shv-13-frc1.facebook.com
0.0.0.0 edge-liverail-shv-17-prn1.facebook.com
0.0.0.0 edge-liverail-shv-18-prn1.facebook.com
0.0.0.0 edge-mqtt.facebook.com
0.0.0.0 edge-mqtt-shv-01-ams2.facebook.com
0.0.0.0 edge-mqtt-shv-01-ams3.facebook.com
0.0.0.0 edge-mqtt-shv-01-ash5.facebook.com
0.0.0.0 edge-mqtt-shv-01-atl1.facebook.com
0.0.0.0 edge-mqtt-shv-01-bru2.facebook.com
0.0.0.0 edge-mqtt-shv-01-cai1.facebook.com
0.0.0.0 edge-mqtt-shv-01-cdg2.facebook.com
0.0.0.0 edge-mqtt-shv-01-dfw1.facebook.com
0.0.0.0 edge-mqtt-shv-01-fra3.facebook.com
0.0.0.0 edge-mqtt-shv-01-gru1.facebook.com
0.0.0.0 edge-mqtt-shv-01-hkg2.facebook.com
0.0.0.0 edge-mqtt-shv-01-iad3.facebook.com
0.0.0.0 edge-mqtt-shv-01-kul1.facebook.com
0.0.0.0 edge-mqtt-shv-01-lax1.facebook.com
0.0.0.0 edge-mqtt-shv-01-lga1.facebook.com
0.0.0.0 edge-mqtt-shv-01-lhr3.facebook.com
0.0.0.0 edge-mqtt-shv-01-mad1.facebook.com
0.0.0.0 edge-mqtt-shv-01-mia1.facebook.com
0.0.0.0 edge-mqtt-shv-01-mxp1.facebook.com
0.0.0.0 edge-mqtt-shv-01-nrt1.facebook.com
0.0.0.0 edge-mqtt-shv-01-ord1.facebook.com
0.0.0.0 edge-mqtt-shv-01-sea1.facebook.com
0.0.0.0 edge-mqtt-shv-01-sin1.facebook.com
0.0.0.0 edge-mqtt-shv-01-sjc2.facebook.com
0.0.0.0 edge-mqtt-shv-01-syd1.facebook.com
0.0.0.0 edge-mqtt-shv-01-tpe1.facebook.com
0.0.0.0 edge-mqtt-shv-01-vie1.facebook.com
0.0.0.0 edge-mqtt-shv-02-cai1.facebook.com
0.0.0.0 edge-mqtt-shv-02-hkg2.facebook.com
0.0.0.0 edge-mqtt-shv-03-ash5.facebook.com
0.0.0.0 edge-mqtt-shv-03-atn1.facebook.com
0.0.0.0 edge-mqtt-shv-03-hkg1.facebook.com
0.0.0.0 edge-mqtt-shv-03-lla1.facebook.com
0.0.0.0 edge-mqtt-shv-03-prn2.facebook.com
0.0.0.0 edge-mqtt-shv-03-xdc1.facebook.com
0.0.0.0 edge-mqtt-shv-04-hkg1.facebook.com
0.0.0.0 edge-mqtt-shv-04-prn2.facebook.com
0.0.0.0 edge-mqtt-shv-06-atn1.facebook.com
0.0.0.0 edge-mqtt-shv-06-lla1.facebook.com
0.0.0.0 edge-mqtt-shv-07-ash4.facebook.com
0.0.0.0 edge-mqtt-shv-07-frc3.facebook.com
0.0.0.0 edge-mqtt-shv-09-lla1.facebook.com
0.0.0.0 edge-mqtt-shv-12-frc1.facebook.com
0.0.0.0 edge-mqtt-shv-12-frc3.facebook.com
0.0.0.0 edge-mqtt-shv-12-lla1.facebook.com
0.0.0.0 edge-mqtt-shv-12-prn1.facebook.com
0.0.0.0 edge-mqtt-shv-13-frc1.facebook.com
0.0.0.0 edge-mqtt-shv-17-prn1.facebook.com
0.0.0.0 edge-mqtt-shv-18-prn1.facebook.com
0.0.0.0 edgeray-origin-shv-05-prn2.facebook.com
0.0.0.0 edgeray-origin-shv-07-lla1.facebook.com
0.0.0.0 edgeray-origin-shv-09-frc3.facebook.com
0.0.0.0 edgeray-origin-shv-11-frc3.facebook.com
0.0.0.0 edgeray-shv-01-ams2.facebook.com
0.0.0.0 edgeray-shv-01-ams3.facebook.com
0.0.0.0 edgeray-shv-01-atl1.facebook.com
0.0.0.0 edgeray-shv-01-bru2.facebook.com
0.0.0.0 edgeray-shv-01-cdg2.facebook.com
0.0.0.0 edgeray-shv-01-dfw1.facebook.com
0.0.0.0 edgeray-shv-01-fra3.facebook.com
0.0.0.0 edgeray-shv-01-gru1.facebook.com
0.0.0.0 edgeray-shv-01-iad3.facebook.com
0.0.0.0 edgeray-shv-01-kul1.facebook.com
0.0.0.0 edgeray-shv-01-lax1.facebook.com
0.0.0.0 edgeray-shv-01-lga1.facebook.com
0.0.0.0 edgeray-shv-01-lhr3.facebook.com
0.0.0.0 edgeray-shv-01-mad1.facebook.com
0.0.0.0 edgeray-shv-01-mia1.facebook.com
0.0.0.0 edgeray-shv-01-mxp1.facebook.com
0.0.0.0 edgeray-shv-01-ord1.facebook.com
0.0.0.0 edgeray-shv-01-sea1.facebook.com
0.0.0.0 edgeray-shv-01-sin1.facebook.com
0.0.0.0 edgeray-shv-01-sjc2.facebook.com
0.0.0.0 edgeray-shv-01-syd1.facebook.com
0.0.0.0 edgeray-shv-01-vie1.facebook.com
0.0.0.0 edge-snaptu-http-p1-shv-01-ams3.facebook.com
0.0.0.0 edge-snaptu-http-p1-shv-01-atl1.facebook.com
0.0.0.0 edge-snaptu-http-p1-shv-01-bru2.facebook.com
0.0.0.0 edge-snaptu-http-p1-shv-01-cai1.facebook.com
0.0.0.0 edge-snaptu-http-p1-shv-01-cdg2.facebook.com
0.0.0.0 edge-snaptu-http-p1-shv-01-dfw1.facebook.com
0.0.0.0 edge-snaptu-http-p1-shv-01-fra3.facebook.com
0.0.0.0 edge-snaptu-http-p1-shv-01-gru1.facebook.com
0.0.0.0 edge-snaptu-http-p1-shv-01-iad3.facebook.com
0.0.0.0 edge-snaptu-http-p1-shv-01-kul1.facebook.com
0.0.0.0 edge-snaptu-http-p1-shv-01-lax1.facebook.com
0.0.0.0 edge-snaptu-http-p1-shv-01-lhr3.facebook.com
0.0.0.0 edge-snaptu-http-p1-shv-01-mad1.facebook.com
0.0.0.0 edge-snaptu-http-p1-shv-01-nrt1.facebook.com
0.0.0.0 edge-snaptu-http-p1-shv-01-ord1.facebook.com
0.0.0.0 edge-snaptu-http-p1-shv-01-sea1.facebook.com
0.0.0.0 edge-snaptu-http-p1-shv-01-syd1.facebook.com
0.0.0.0 edge-snaptu-http-p1-shv-02-cai1.facebook.com
0.0.0.0 edge-snaptu-tunnel-shv-01-ams3.facebook.com
0.0.0.0 edge-snaptu-tunnel-shv-01-ash5.facebook.com
0.0.0.0 edge-snaptu-tunnel-shv-01-atl1.facebook.com
0.0.0.0 edge-snaptu-tunnel-shv-01-bru2.facebook.com
0.0.0.0 edge-snaptu-tunnel-shv-01-cai1.facebook.com
0.0.0.0 edge-snaptu-tunnel-shv-01-cdg2.facebook.com
0.0.0.0 edge-snaptu-tunnel-shv-01-dfw1.facebook.com
0.0.0.0 edge-snaptu-tunnel-shv-01-fra3.facebook.com
0.0.0.0 edge-snaptu-tunnel-shv-01-gru1.facebook.com
0.0.0.0 edge-snaptu-tunnel-shv-01-hkg2.facebook.com
0.0.0.0 edge-snaptu-tunnel-shv-01-iad3.facebook.com
0.0.0.0 edge-snaptu-tunnel-shv-01-kul1.facebook.com
0.0.0.0 edge-snaptu-tunnel-shv-01-lax1.facebook.com
0.0.0.0 edge-snaptu-tunnel-shv-01-lhr3.facebook.com
0.0.0.0 edge-snaptu-tunnel-shv-01-mad1.facebook.com
0.0.0.0 edge-snaptu-tunnel-shv-01-nrt1.facebook.com
0.0.0.0 edge-snaptu-tunnel-shv-01-ord1.facebook.com
0.0.0.0 edge-snaptu-tunnel-shv-01-sea1.facebook.com
0.0.0.0 edge-snaptu-tunnel-shv-01-syd1.facebook.com
0.0.0.0 edge-snaptu-tunnel-shv-02-cai1.facebook.com
0.0.0.0 edge-star-shv-12-frc3.facebook.com
0.0.0.0 instagram.c10r.facebook.com
0.0.0.0 l.facebook.com
0.0.0.0 liverail.c10r.facebook.com
0.0.0.0 lm.facebook.com
0.0.0.0 m.facebook.com
0.0.0.0 mqtt.c10r.facebook.com
0.0.0.0 mqtt.vvv.facebook.com
0.0.0.0 pixel.facebook.com
0.0.0.0 profile.ak.facebook.com.edgesuite.net
0.0.0.0 research.facebook.com
0.0.0.0 snaptu-d-shv-05-frc3.facebook.com
0.0.0.0 snaptu-d-shv-10-frc1.facebook.com
0.0.0.0 s-static.ak.facebook.com.edgekey.net
0.0.0.0 star.c10r.facebook.com
0.0.0.0 star.facebook.com
0.0.0.0 star-mini.c10r.facebook.com
0.0.0.0 static.ak.facebook.com
0.0.0.0 static.ak.facebook.com.edgesuite.net
0.0.0.0 staticxx.facebook.com
0.0.0.0 webdav.facebook.com
0.0.0.0 z-m.c10r.facebook.com
0.0.0.0 z-m.facebook.com
0.0.0.0 nl-nl.facebook.com
0.0.0.0 pl-pl.facebook.com
0.0.0.0 edge-sonar-shv-01-ams2.fbcdn.net
0.0.0.0 edge-sonar-shv-01-ams3.fbcdn.net
0.0.0.0 edge-sonar-shv-01-ash5.fbcdn.net
0.0.0.0 edge-sonar-shv-01-atl1.fbcdn.net
0.0.0.0 edge-sonar-shv-01-bru2.fbcdn.net
0.0.0.0 edge-sonar-shv-01-cai1.fbcdn.net
0.0.0.0 edge-sonar-shv-01-cdg2.fbcdn.net
0.0.0.0 edge-sonar-shv-01-dfw1.fbcdn.net
0.0.0.0 edge-sonar-shv-01-fra3.fbcdn.net
0.0.0.0 edge-sonar-shv-01-gru1.fbcdn.net
0.0.0.0 edge-sonar-shv-01-iad3.fbcdn.net
0.0.0.0 edge-sonar-shv-01-kul1.fbcdn.net
0.0.0.0 edge-sonar-shv-01-lax1.fbcdn.net
0.0.0.0 edge-sonar-shv-01-lga1.fbcdn.net
0.0.0.0 edge-sonar-shv-01-lhr3.fbcdn.net
0.0.0.0 edge-sonar-shv-01-mad1.fbcdn.net
0.0.0.0 edge-sonar-shv-01-mia1.fbcdn.net
0.0.0.0 edge-sonar-shv-01-mrs1.fbcdn.net
0.0.0.0 edge-sonar-shv-01-mxp1.fbcdn.net
0.0.0.0 edge-sonar-shv-01-nrt1.fbcdn.net
0.0.0.0 edge-sonar-shv-01-ord1.fbcdn.net
0.0.0.0 edge-sonar-shv-01-sea1.fbcdn.net
0.0.0.0 edge-sonar-shv-01-sin1.fbcdn.net
0.0.0.0 edge-sonar-shv-01-sjc2.fbcdn.net
0.0.0.0 edge-sonar-shv-01-syd1.fbcdn.net
0.0.0.0 edge-sonar-shv-01-tpe1.fbcdn.net
0.0.0.0 edge-sonar-shv-01-vie1.fbcdn.net
0.0.0.0 edge-sonar-shv-02-cai1.fbcdn.net
0.0.0.0 edge-sonar-shv-02-hkg2.fbcdn.net
0.0.0.0 edge-sonar-shv-03-ash5.fbcdn.net
0.0.0.0 edge-sonar-shv-03-atn1.fbcdn.net
0.0.0.0 edge-sonar-shv-03-hkg1.fbcdn.net
0.0.0.0 edge-sonar-shv-03-lla1.fbcdn.net
0.0.0.0 edge-sonar-shv-03-prn2.fbcdn.net
0.0.0.0 edge-sonar-shv-03-xdc1.fbcdn.net
0.0.0.0 edge-sonar-shv-04-hkg1.fbcdn.net
0.0.0.0 edge-sonar-shv-04-prn2.fbcdn.net
0.0.0.0 edge-sonar-shv-06-atn1.fbcdn.net
0.0.0.0 edge-sonar-shv-06-lla1.fbcdn.net
0.0.0.0 edge-sonar-shv-07-ash4.fbcdn.net
0.0.0.0 edge-sonar-shv-07-frc3.fbcdn.net
0.0.0.0 edge-sonar-shv-09-frc1.fbcdn.net
0.0.0.0 edge-sonar-shv-09-lla1.fbcdn.net
0.0.0.0 edge-sonar-shv-12-frc1.fbcdn.net
0.0.0.0 edge-sonar-shv-12-frc3.fbcdn.net
0.0.0.0 edge-sonar-shv-12-lla1.fbcdn.net
0.0.0.0 edge-sonar-shv-12-prn1.fbcdn.net
0.0.0.0 edge-sonar-shv-13-frc1.fbcdn.net
0.0.0.0 edge-sonar-shv-17-prn1.fbcdn.net
0.0.0.0 edge-sonar-shv-18-prn1.fbcdn.net
0.0.0.0 external-iad3-1.xx.fbcdn.net
0.0.0.0 external.fsjc1-2.fna.fbcdn.net
0.0.0.0 fdda274d380ki4frcgi-rumjfjai1460158783-sonar.xx.fbcdn.net
0.0.0.0 herningrideklub.netscontent-a-ams.xx.fbcdn.net
0.0.0.0 messenger.com
0.0.0.0 m.me
0.0.0.0 ncontent.xx.fbcdn.net
0.0.0.0 origincache-ash.t.fbcdn.net
0.0.0.0 origincache-frc.t.fbcdn.net
0.0.0.0 origincache-prn.t.fbcdn.net
0.0.0.0 origincache-tf.t.fbcdn.net
0.0.0.0 origincache-tl.t.fbcdn.net
0.0.0.0 origincache-xtf.fbcdn.net
0.0.0.0 origincache-xtl.fbcdn.net
0.0.0.0 origincache-xx-shv-05-atn1.fbcdn.net
0.0.0.0 origincache-xx-shv-05-frc3.fbcdn.net
0.0.0.0 origincache-xx-shv-05-prn2.fbcdn.net
0.0.0.0 origincache-xx-shv-06-ash3.fbcdn.net
0.0.0.0 origincache-xx-shv-06-ash4.fbcdn.net
0.0.0.0 origincache-xx-shv-07-ash2.fbcdn.net
0.0.0.0 origincache-xx-shv-07-atn1.fbcdn.net
0.0.0.0 origincache-xx-shv-08-ash2.fbcdn.net
0.0.0.0 origincache-xx-shv-08-frc3.fbcdn.net
0.0.0.0 origincache-xx-shv-08-prn2.fbcdn.net
0.0.0.0 origincache-xx-shv-09-frc3.fbcdn.net
0.0.0.0 origincache-xx-shv-09-prn2.fbcdn.net
0.0.0.0 origincache-xx-shv-13-prn1.fbcdn.net
0.0.0.0 photos-a-ord.xx.fbcdn.net
0.0.0.0 photos-a.xx.fbcdn.net
0.0.0.0 photos-b-ord.xx.fbcdn.net
0.0.0.0 photos-b.xx.fbcdn.net
0.0.0.0 profile-a-atl.xx.fbcdn.net
0.0.0.0 profile-a-dfw.xx.fbcdn.net
0.0.0.0 profile-a-iad.xx.fbcdn.net
0.0.0.0 profile-a-lax.xx.fbcdn.net
0.0.0.0 profile-a-lga.xx.fbcdn.net
0.0.0.0 profile-a-mia.xx.fbcdn.net
0.0.0.0 profile-a-ord.xx.fbcdn.net
0.0.0.0 profile-a-sea.xx.fbcdn.net
0.0.0.0 profile-a-sjc.xx.fbcdn.net
0.0.0.0 profile-a.xx.fbcdn.net
0.0.0.0 profile-b-dfw.xx.fbcdn.net
0.0.0.0 profile-b-iad.xx.fbcdn.net
0.0.0.0 profile-b-lga.xx.fbcdn.net
0.0.0.0 profile-b-mia.xx.fbcdn.net
0.0.0.0 profile-b-ord.xx.fbcdn.net
0.0.0.0 profile-b-sjc.xx.fbcdn.net
0.0.0.0 profile-b.xx.fbcdn.net
0.0.0.0 profile.ak.fbcdn.net
0.0.0.0 profile.xx.fbcdn.net
0.0.0.0 scontent-1.2914.fna.fbcdn.net
0.0.0.0 scontent-2.2914.fna.fbcdn.net
0.0.0.0 scontent-a-ams.xx.fbcdn.net
0.0.0.0 scontent-a-atl.xx.fbcdn.net
0.0.0.0 scontent-a-cdg.xx.fbcdn.net
0.0.0.0 scontent-a-dfw.xx.fbcdn.net
0.0.0.0 scontent-a-fra.xx.fbcdn.net
0.0.0.0 scontent-a-gru.xx.fbcdn.net
0.0.0.0 scontent-a-iad.xx.fbcdn.net
0.0.0.0 scontent-a-lax.xx.fbcdn.net
0.0.0.0 scontent-a-lga.xx.fbcdn.net
0.0.0.0 scontent-a-lhr.xx.fbcdn.net
0.0.0.0 scontent-a-mad.xx.fbcdn.net
0.0.0.0 scontent-a-mia.xx.fbcdn.net
0.0.0.0 scontent-a-mxp.xx.fbcdn.net
0.0.0.0 scontent-a-ord.xx.fbcdn.net
0.0.0.0 scontent-a-pao.xx.fbcdn.net
0.0.0.0 scontent-a-sea.xx.fbcdn.net
0.0.0.0 scontent-a-sin.xx.fbcdn.net
0.0.0.0 scontent-a-sjc.xx.fbcdn.net
0.0.0.0 scontent-a-vie.xx.fbcdn.net
0.0.0.0 scontent-a.xx.fbcdn.net
0.0.0.0 scontent-ams.xx.fbcdn.net
0.0.0.0 scontent-atl.xx.fbcdn.net
0.0.0.0 scontent-b-ams.xx.fbcdn.net
0.0.0.0 scontent-b-atl.xx.fbcdn.net
0.0.0.0 scontent-b-cdg.xx.fbcdn.net
0.0.0.0 scontent-b-dfw.xx.fbcdn.net
0.0.0.0 scontent-b-fra.xx.fbcdn.net
0.0.0.0 scontent-b-gru.xx.fbcdn.net
0.0.0.0 scontent-b-hkg.xx.fbcdn.net
0.0.0.0 scontent-b-lax.xx.fbcdn.net
0.0.0.0 scontent-b-lga.xx.fbcdn.net
0.0.0.0 scontent-b-lhr.xx.fbcdn.net
0.0.0.0 scontent-b-mad.xx.fbcdn.net
0.0.0.0 scontent-b-mia.xx.fbcdn.net
0.0.0.0 scontent-b-mxp.xx.fbcdn.net
0.0.0.0 scontent-b-ord.xx.fbcdn.net
0.0.0.0 scontent-b-pao.xx.fbcdn.net
0.0.0.0 scontent-b-sea.xx.fbcdn.net
0.0.0.0 scontent-b-sin.xx.fbcdn.net
0.0.0.0 scontent-b-sjc.xx.fbcdn.net
0.0.0.0 scontent-b-vie.xx.fbcdn.net
0.0.0.0 scontent-b.xx.fbcdn.net
0.0.0.0 scontent-cdg.xx.fbcdn.net
0.0.0.0 scontent-dfw.xx.fbcdn.net
0.0.0.0 scontent-fra.xx.fbcdn.net
0.0.0.0 scontent-gru.xx.fbcdn.net
0.0.0.0 scontent-iad3-1.xx.fbcdn.net
0.0.0.0 scontent-lax.xx.fbcdn.net
0.0.0.0 scontent-lax3-1.xx.fbcdn.net
0.0.0.0 scontent-lga.xx.fbcdn.net
0.0.0.0 scontent-lga3-1.xx.fbcdn.net
0.0.0.0 scontent-lhr.xx.fbcdn.net
0.0.0.0 scontent-mia.xx.fbcdn.net
0.0.0.0 scontent-mxp.xx.fbcdn.net
0.0.0.0 scontent-ord.xx.fbcdn.net
0.0.0.0 scontent-sea.xx.fbcdn.net
0.0.0.0 scontent-sin.xx.fbcdn.net
0.0.0.0 scontent-sjc.xx.fbcdn.net
0.0.0.0 scontent-sjc2-1.xx.fbcdn.net
0.0.0.0 scontent-vie.xx.fbcdn.net
0.0.0.0 scontent.fsjc1-2.fna.fbcdn.net
0.0.0.0 scontent.fsnc1-1.fna.fbcdn.net
0.0.0.0 scontent.fams1-2.fna.fbcdn.net
0.0.0.0 scontent.xx.fbcdn.net
0.0.0.0 sonar-iad.xx.fbcdn.net
0.0.0.0 sphotos-a-ams.xx.fbcdn.net
0.0.0.0 sphotos-a-atl.xx.fbcdn.net
0.0.0.0 sphotos-a-cdg.xx.fbcdn.net
0.0.0.0 sphotos-a-dfw.xx.fbcdn.net
0.0.0.0 sphotos-a-iad.xx.fbcdn.net
0.0.0.0 sphotos-a-lax.xx.fbcdn.net
0.0.0.0 sphotos-a-lga.xx.fbcdn.net
0.0.0.0 sphotos-a-lhr.xx.fbcdn.net
0.0.0.0 sphotos-a-mad.xx.fbcdn.net
0.0.0.0 sphotos-a-mia.xx.fbcdn.net
0.0.0.0 sphotos-a-mxp.xx.fbcdn.net
0.0.0.0 sphotos-a-ord.xx.fbcdn.net
0.0.0.0 sphotos-a-pao.xx.fbcdn.net
0.0.0.0 sphotos-a-sea.xx.fbcdn.net
0.0.0.0 sphotos-a-sjc.xx.fbcdn.net
0.0.0.0 sphotos-a-vie.xx.fbcdn.net
0.0.0.0 sphotos-a.xx.fbcdn.net
0.0.0.0 sphotos-b-ams.xx.fbcdn.net
0.0.0.0 sphotos-b-atl.xx.fbcdn.net
0.0.0.0 sphotos-b-cdg.xx.fbcdn.net
0.0.0.0 sphotos-b-dfw.xx.fbcdn.net
0.0.0.0 sphotos-b-iad.xx.fbcdn.net
0.0.0.0 sphotos-b-lax.xx.fbcdn.net
0.0.0.0 sphotos-b-lga.xx.fbcdn.net
0.0.0.0 sphotos-b-lhr.xx.fbcdn.net
0.0.0.0 sphotos-b-mad.xx.fbcdn.net
0.0.0.0 sphotos-b-mia.xx.fbcdn.net
0.0.0.0 sphotos-b-mxp.xx.fbcdn.net
0.0.0.0 sphotos-b-ord.xx.fbcdn.net
0.0.0.0 sphotos-b-pao.xx.fbcdn.net
0.0.0.0 sphotos-b-sea.xx.fbcdn.net
0.0.0.0 sphotos-b-sjc.xx.fbcdn.net
0.0.0.0 sphotos-b-vie.xx.fbcdn.net
0.0.0.0 sphotos-b.xx.fbcdn.net
0.0.0.0 sphotos.xx.fbcdn.net
0.0.0.0 sphotosbord.xx.fbcdn.net
0.0.0.0 static.xx.fbcdn.net
0.0.0.0 video-iad3-1.xx.fbcdn.net
0.0.0.0 vthumb.xx.fbcdn.net
0.0.0.0 xx-fbcdn-shv-01-ams2.fbcdn.net
0.0.0.0 xx-fbcdn-shv-01-ams3.fbcdn.net
0.0.0.0 xx-fbcdn-shv-01-atl1.fbcdn.net
0.0.0.0 xx-fbcdn-shv-01-bru2.fbcdn.net
0.0.0.0 xx-fbcdn-shv-01-cdg2.fbcdn.net
0.0.0.0 xx-fbcdn-shv-01-dfw1.fbcdn.net
0.0.0.0 xx-fbcdn-shv-01-fra3.fbcdn.net
0.0.0.0 xx-fbcdn-shv-01-gru1.fbcdn.net
0.0.0.0 xx-fbcdn-shv-01-hkg2.fbcdn.net
0.0.0.0 xx-fbcdn-shv-01-iad3.fbcdn.net
0.0.0.0 xx-fbcdn-shv-01-lax1.fbcdn.net
0.0.0.0 xx-fbcdn-shv-01-lga1.fbcdn.net
0.0.0.0 xx-fbcdn-shv-01-lhr3.fbcdn.net
0.0.0.0 xx-fbcdn-shv-01-mad1.fbcdn.net
0.0.0.0 xx-fbcdn-shv-01-mia1.fbcdn.net
0.0.0.0 xx-fbcdn-shv-01-mrs1.fbcdn.net
0.0.0.0 xx-fbcdn-shv-01-mxp1.fbcdn.net
0.0.0.0 xx-fbcdn-shv-01-nrt1.fbcdn.net
0.0.0.0 xx-fbcdn-shv-01-ord1.fbcdn.net
0.0.0.0 xx-fbcdn-shv-01-sea1.fbcdn.net
0.0.0.0 xx-fbcdn-shv-01-sin1.fbcdn.net
0.0.0.0 xx-fbcdn-shv-01-sjc2.fbcdn.net
0.0.0.0 xx-fbcdn-shv-01-vie1.fbcdn.net
0.0.0.0 xx-fbcdn-shv-02-cai1.fbcdn.net
0.0.0.0 xx-fbcdn-shv-03-ash5.fbcdn.net
0.0.0.0 xx-fbcdn-shv-04-hkg1.fbcdn.net
0.0.0.0 xx-fbcdn-shv-04-prn2.fbcdn.net
0.0.0.0 z-1-scontent-sjc2-1.xx.fbcdn.net
0.0.0.0 z-1-scontent.xx.fbcdn.net
0.0.0.0 api.instagram.com
0.0.0.0 black.ish.instagram.com
0.0.0.0 i.instagram.com
0.0.0.0 instagram-shv-01-ams2.fbcdn.net
0.0.0.0 instagram-shv-01-ams3.fbcdn.net
0.0.0.0 instagram-shv-01-ash5.fbcdn.net
0.0.0.0 instagram-shv-01-atl1.fbcdn.net
0.0.0.0 instagram-shv-01-bru2.fbcdn.net
0.0.0.0 instagram-shv-01-cai1.fbcdn.net
0.0.0.0 instagram-shv-01-cdg2.fbcdn.net
0.0.0.0 instagram-shv-01-dfw1.fbcdn.net
0.0.0.0 instagram-shv-01-fra3.fbcdn.net
0.0.0.0 instagram-shv-01-gru1.fbcdn.net
0.0.0.0 instagram-shv-01-hkg2.fbcdn.net
0.0.0.0 instagram-shv-01-iad3.fbcdn.net
0.0.0.0 instagram-shv-01-kul1.fbcdn.net
0.0.0.0 instagram-shv-01-lax1.fbcdn.net
0.0.0.0 instagram-shv-01-lga1.fbcdn.net
0.0.0.0 instagram-shv-01-lhr3.fbcdn.net
0.0.0.0 instagram-shv-01-mad1.fbcdn.net
0.0.0.0 instagram-shv-01-mia1.fbcdn.net
0.0.0.0 instagram-shv-01-mxp1.fbcdn.net
0.0.0.0 instagram-shv-01-nrt1.fbcdn.net
0.0.0.0 instagram-shv-01-ord1.fbcdn.net
0.0.0.0 instagram-shv-01-sea1.fbcdn.net
0.0.0.0 instagram-shv-01-sin1.fbcdn.net
0.0.0.0 instagram-shv-01-sjc2.fbcdn.net
0.0.0.0 instagram-shv-01-syd1.fbcdn.net
0.0.0.0 instagram-shv-01-tpe1.fbcdn.net
0.0.0.0 instagram-shv-01-vie1.fbcdn.net
0.0.0.0 instagram-shv-02-cai1.fbcdn.net
0.0.0.0 instagram-shv-02-hkg2.fbcdn.net
0.0.0.0 instagram-shv-03-ash5.fbcdn.net
0.0.0.0 instagram-shv-03-atn1.fbcdn.net
0.0.0.0 instagram-shv-03-hkg1.fbcdn.net
0.0.0.0 instagram-shv-03-lla1.fbcdn.net
0.0.0.0 instagram-shv-03-prn2.fbcdn.net
0.0.0.0 instagram-shv-03-xdc1.fbcdn.net
0.0.0.0 instagram-shv-04-hkg1.fbcdn.net
0.0.0.0 instagram-shv-06-atn1.fbcdn.net
0.0.0.0 instagram-shv-06-lla1.fbcdn.net
0.0.0.0 instagram-shv-07-ash4.fbcdn.net
0.0.0.0 instagram-shv-07-frc3.fbcdn.net
0.0.0.0 instagram-shv-09-frc1.fbcdn.net
0.0.0.0 instagram-shv-09-lla1.fbcdn.net
0.0.0.0 instagram-shv-12-frc1.fbcdn.net
0.0.0.0 instagram-shv-12-frc3.fbcdn.net
0.0.0.0 instagram-shv-12-lla1.fbcdn.net
0.0.0.0 instagram-shv-12-prn1.fbcdn.net
0.0.0.0 instagram-shv-13-frc1.fbcdn.net
0.0.0.0 instagram-shv-17-prn1.fbcdn.net
0.0.0.0 instagram-shv-18-prn1.fbcdn.net
0.0.0.0 instagram.com
0.0.0.0 instagramstatic-a.akamaihd.net
0.0.0.0 instagramstatic-a.akamaihd.net.edgesuite.net
0.0.0.0 logger.instagram.com
0.0.0.0 platform.instagram.com
0.0.0.0 scontent-iad3-1.cdninstagram.com
0.0.0.0 scontent.cdninstagram.com
0.0.0.0 telegraph-ash.instagram.com
0.0.0.0 white.ish.instagram.com
0.0.0.0 www.instagram.com
0.0.0.0 ae0.bb01.ams2.tfbnw.net
0.0.0.0 ae0.bb01.atl1.tfbnw.net
0.0.0.0 ae0.bb01.bos2.tfbnw.net
0.0.0.0 ae0.bb01.hkg1.tfbnw.net
0.0.0.0 ae0.bb01.hnd1.tfbnw.net
0.0.0.0 ae0.bb01.lhr2.tfbnw.net
0.0.0.0 ae0.bb01.lla1.tfbnw.net
0.0.0.0 ae0.bb01.mia1.tfbnw.net
0.0.0.0 ae0.bb01.nrt1.tfbnw.net
0.0.0.0 ae0.bb01.sin1.tfbnw.net
0.0.0.0 ae0.bb02.ams2.tfbnw.net
0.0.0.0 ae0.bb02.atl1.tfbnw.net
0.0.0.0 ae0.bb02.bos2.tfbnw.net
0.0.0.0 ae0.bb02.hkg1.tfbnw.net
0.0.0.0 ae0.bb02.lhr2.tfbnw.net
0.0.0.0 ae0.bb02.lla1.tfbnw.net
0.0.0.0 ae0.bb02.mia1.tfbnw.net
0.0.0.0 ae0.bb02.sin1.tfbnw.net
0.0.0.0 ae0.bb03.atn1.tfbnw.net
0.0.0.0 ae0.bb03.frc3.tfbnw.net
0.0.0.0 ae0.bb03.lla1.tfbnw.net
0.0.0.0 ae0.bb03.prn2.tfbnw.net
0.0.0.0 ae0.bb03.sjc1.tfbnw.net
0.0.0.0 ae0.bb04.atn1.tfbnw.net
0.0.0.0 ae0.bb04.frc3.tfbnw.net
0.0.0.0 ae0.bb04.lla1.tfbnw.net
0.0.0.0 ae0.bb04.prn2.tfbnw.net
0.0.0.0 ae0.bb04.sjc1.tfbnw.net
0.0.0.0 ae0.bb05.frc3.tfbnw.net
0.0.0.0 ae0.bb05.lla1.tfbnw.net
0.0.0.0 ae0.bb05.prn2.tfbnw.net
0.0.0.0 ae0.bb06.frc3.tfbnw.net
0.0.0.0 ae0.bb06.lla1.tfbnw.net
0.0.0.0 ae0.bb07.lla1.tfbnw.net
0.0.0.0 ae0.br01.arn2.tfbnw.net
0.0.0.0 ae0.br01.bru2.tfbnw.net
0.0.0.0 ae0.br01.cai1.tfbnw.net
0.0.0.0 ae0.br01.gru1.tfbnw.net
0.0.0.0 ae0.br01.mad1.tfbnw.net
0.0.0.0 ae0.br01.mrs1.tfbnw.net
0.0.0.0 ae0.br01.mxp1.tfbnw.net
0.0.0.0 ae0.br01.syd1.tfbnw.net
0.0.0.0 ae0.br01.tpe1.tfbnw.net
0.0.0.0 ae0.br01.vie1.tfbnw.net
0.0.0.0 ae0.dr01.prn2.tfbnw.net
0.0.0.0 ae0.dr01.snc1.tfbnw.net
0.0.0.0 ae0.dr02.prn2.tfbnw.net
0.0.0.0 ae0.dr02.snc1.tfbnw.net
0.0.0.0 ae0.dr03.ash3.tfbnw.net
0.0.0.0 ae0.dr03.prn2.tfbnw.net
0.0.0.0 ae0.dr04.ash3.tfbnw.net
0.0.0.0 ae0.dr04.prn2.tfbnw.net
0.0.0.0 ae0.lr01.ash3.tfbnw.net
0.0.0.0 ae0.lr02.ash3.tfbnw.net
0.0.0.0 ae0.pr01.ams2.tfbnw.net
0.0.0.0 ae0.pr01.ams3.tfbnw.net
0.0.0.0 ae0.pr01.dfw1.tfbnw.net
0.0.0.0 ae0.pr01.fra2.tfbnw.net
0.0.0.0 ae0.pr01.lhr2.tfbnw.net
0.0.0.0 ae0.pr01.mia1.tfbnw.net
0.0.0.0 ae0.pr02.dfw1.tfbnw.net
0.0.0.0 ae0.pr02.fra2.tfbnw.net
0.0.0.0 ae0.pr02.iad3.tfbnw.net
0.0.0.0 ae0.pr02.lax1.tfbnw.net
0.0.0.0 ae0.pr02.lga1.tfbnw.net
0.0.0.0 ae0.pr02.mia1.tfbnw.net
0.0.0.0 ae0.pr02.ord1.tfbnw.net
0.0.0.0 ae0.pr03.sjc1.tfbnw.net
0.0.0.0 ae0.pr04.sjc1.tfbnw.net
0.0.0.0 ae10.bb01.atl1.tfbnw.net
0.0.0.0 ae10.bb01.lhr2.tfbnw.net
0.0.0.0 ae10.bb01.lla1.tfbnw.net
0.0.0.0 ae10.bb01.mia1.tfbnw.net
0.0.0.0 ae10.bb01.sin1.tfbnw.net
0.0.0.0 ae10.bb02.atl1.tfbnw.net
0.0.0.0 ae10.bb02.hkg1.tfbnw.net
0.0.0.0 ae10.bb02.lhr2.tfbnw.net
0.0.0.0 ae10.bb02.lla1.tfbnw.net
0.0.0.0 ae10.bb02.mia1.tfbnw.net
0.0.0.0 ae10.bb02.sin1.tfbnw.net
0.0.0.0 ae10.bb03.atn1.tfbnw.net
0.0.0.0 ae10.bb03.frc3.tfbnw.net
0.0.0.0 ae10.bb03.lla1.tfbnw.net
0.0.0.0 ae10.bb03.sjc1.tfbnw.net
0.0.0.0 ae10.bb04.atn1.tfbnw.net
0.0.0.0 ae10.bb04.frc3.tfbnw.net
0.0.0.0 ae10.bb04.lla1.tfbnw.net
0.0.0.0 ae10.bb04.sjc1.tfbnw.net
0.0.0.0 ae10.bb05.lla1.tfbnw.net
0.0.0.0 ae10.bb06.frc3.tfbnw.net
0.0.0.0 ae10.bb06.lla1.tfbnw.net
0.0.0.0 ae10.br01.bru2.tfbnw.net
0.0.0.0 ae10.br01.kul1.tfbnw.net
0.0.0.0 ae10.br01.mad1.tfbnw.net
0.0.0.0 ae10.br01.mxp1.tfbnw.net
0.0.0.0 ae10.br01.tpe1.tfbnw.net
0.0.0.0 ae10.br02.vie1.tfbnw.net
0.0.0.0 ae10.dr01.frc1.tfbnw.net
0.0.0.0 ae10.dr02.frc1.tfbnw.net
0.0.0.0 ae10.dr02.prn1.tfbnw.net
0.0.0.0 ae10.dr05.prn1.tfbnw.net
0.0.0.0 ae10.dr06.prn1.tfbnw.net
0.0.0.0 ae10.pr01.atl1.tfbnw.net
0.0.0.0 ae10.pr01.dfw1.tfbnw.net
0.0.0.0 ae10.pr01.fra2.tfbnw.net
0.0.0.0 ae10.pr01.lax1.tfbnw.net
0.0.0.0 ae10.pr01.mia1.tfbnw.net
0.0.0.0 ae10.pr01.nrt1.tfbnw.net
0.0.0.0 ae10.pr01.sin1.tfbnw.net
0.0.0.0 ae10.pr02.atl1.tfbnw.net
0.0.0.0 ae10.pr02.fra2.tfbnw.net
0.0.0.0 ae10.pr02.sin1.tfbnw.net
0.0.0.0 ae11.bb01.ams2.tfbnw.net
0.0.0.0 ae11.bb01.atl1.tfbnw.net
0.0.0.0 ae11.bb01.lhr2.tfbnw.net
0.0.0.0 ae11.bb01.mia1.tfbnw.net
0.0.0.0 ae11.bb01.nrt1.tfbnw.net
0.0.0.0 ae11.bb01.sin1.tfbnw.net
0.0.0.0 ae11.bb02.ams2.tfbnw.net
0.0.0.0 ae11.bb02.atl1.tfbnw.net
0.0.0.0 ae11.bb02.hkg1.tfbnw.net
0.0.0.0 ae11.bb02.lhr2.tfbnw.net
0.0.0.0 ae11.bb02.mia1.tfbnw.net
0.0.0.0 ae11.bb02.sin1.tfbnw.net
0.0.0.0 ae11.bb03.atn1.tfbnw.net
0.0.0.0 ae11.bb03.frc3.tfbnw.net
0.0.0.0 ae11.bb03.prn2.tfbnw.net
0.0.0.0 ae11.bb03.sjc1.tfbnw.net
0.0.0.0 ae11.bb04.atn1.tfbnw.net
0.0.0.0 ae11.bb04.frc3.tfbnw.net
0.0.0.0 ae11.bb04.prn2.tfbnw.net
0.0.0.0 ae11.bb04.sjc1.tfbnw.net
0.0.0.0 ae11.bb05.lla1.tfbnw.net
0.0.0.0 ae11.bb06.frc3.tfbnw.net
0.0.0.0 ae11.bb06.lla1.tfbnw.net
0.0.0.0 ae11.br01.kul1.tfbnw.net
0.0.0.0 ae11.br01.mad1.tfbnw.net
0.0.0.0 ae11.br01.tpe1.tfbnw.net
0.0.0.0 ae11.br01.vie1.tfbnw.net
0.0.0.0 ae11.br02.mxp1.tfbnw.net
0.0.0.0 ae11.br02.vie1.tfbnw.net
0.0.0.0 ae11.dr01.atn1.tfbnw.net
0.0.0.0 ae11.dr01.frc1.tfbnw.net
0.0.0.0 ae11.dr01.snc1.tfbnw.net
0.0.0.0 ae11.dr02.atn1.tfbnw.net
0.0.0.0 ae11.dr02.frc1.tfbnw.net
0.0.0.0 ae11.dr02.snc1.tfbnw.net
0.0.0.0 ae11.dr03.atn1.tfbnw.net
0.0.0.0 ae11.dr03.frc1.tfbnw.net
0.0.0.0 ae11.dr04.atn1.tfbnw.net
0.0.0.0 ae11.dr04.frc1.tfbnw.net
0.0.0.0 ae11.pr01.atl1.tfbnw.net
0.0.0.0 ae11.pr01.dfw1.tfbnw.net
0.0.0.0 ae11.pr01.hkg1.tfbnw.net
0.0.0.0 ae11.pr01.lga1.tfbnw.net
0.0.0.0 ae11.pr01.lhr2.tfbnw.net
0.0.0.0 ae11.pr01.lhr3.tfbnw.net
0.0.0.0 ae11.pr01.ord1.tfbnw.net
0.0.0.0 ae11.pr02.atl1.tfbnw.net
0.0.0.0 ae11.pr02.cdg1.tfbnw.net
0.0.0.0 ae11.pr02.fra2.tfbnw.net
0.0.0.0 ae11.pr02.lax1.tfbnw.net
0.0.0.0 ae12.bb01.ams2.tfbnw.net
0.0.0.0 ae12.bb01.lhr2.tfbnw.net
0.0.0.0 ae12.bb01.mia1.tfbnw.net
0.0.0.0 ae12.bb01.nrt1.tfbnw.net
0.0.0.0 ae12.bb02.ams2.tfbnw.net
0.0.0.0 ae12.bb02.atl1.tfbnw.net
0.0.0.0 ae12.bb02.lhr2.tfbnw.net
0.0.0.0 ae12.bb02.mia1.tfbnw.net
0.0.0.0 ae12.bb03.atn1.tfbnw.net
0.0.0.0 ae12.bb03.frc3.tfbnw.net
0.0.0.0 ae12.bb03.prn2.tfbnw.net
0.0.0.0 ae12.bb03.sjc1.tfbnw.net
0.0.0.0 ae12.bb04.atn1.tfbnw.net
0.0.0.0 ae12.bb04.frc3.tfbnw.net
0.0.0.0 ae12.bb04.prn2.tfbnw.net
0.0.0.0 ae12.bb04.sjc1.tfbnw.net
0.0.0.0 ae12.bb05.lla1.tfbnw.net
0.0.0.0 ae12.bb06.frc3.tfbnw.net
0.0.0.0 ae12.bb06.lla1.tfbnw.net
0.0.0.0 ae12.br01.kul1.tfbnw.net
0.0.0.0 ae12.br01.mad1.tfbnw.net
0.0.0.0 ae12.br01.mxp1.tfbnw.net
0.0.0.0 ae12.br01.vie1.tfbnw.net
0.0.0.0 ae12.br02.mxp1.tfbnw.net
0.0.0.0 ae12.br02.vie1.tfbnw.net
0.0.0.0 ae12.dr01.atn1.tfbnw.net
0.0.0.0 ae12.dr01.frc1.tfbnw.net
0.0.0.0 ae12.dr01.snc1.tfbnw.net
0.0.0.0 ae12.dr02.atn1.tfbnw.net
0.0.0.0 ae12.dr02.frc1.tfbnw.net
0.0.0.0 ae12.dr02.snc1.tfbnw.net
0.0.0.0 ae12.dr03.atn1.tfbnw.net
0.0.0.0 ae12.dr03.frc1.tfbnw.net
0.0.0.0 ae12.dr04.atn1.tfbnw.net
0.0.0.0 ae12.dr04.frc1.tfbnw.net
0.0.0.0 ae12.pr01.ams2.tfbnw.net
0.0.0.0 ae12.pr01.ams3.tfbnw.net
0.0.0.0 ae12.pr01.atl1.tfbnw.net
0.0.0.0 ae12.pr01.hkg1.tfbnw.net
0.0.0.0 ae12.pr01.lga1.tfbnw.net
0.0.0.0 ae12.pr01.lhr2.tfbnw.net
0.0.0.0 ae12.pr01.mia1.tfbnw.net
0.0.0.0 ae12.pr01.ord1.tfbnw.net
0.0.0.0 ae12.pr01.sea1.tfbnw.net
0.0.0.0 ae12.pr01.sin1.tfbnw.net
0.0.0.0 ae12.pr02.atl1.tfbnw.net
0.0.0.0 ae12.pr02.sea1.tfbnw.net
0.0.0.0 ae13.bb01.atl1.tfbnw.net
0.0.0.0 ae13.bb01.lhr2.tfbnw.net
0.0.0.0 ae13.bb01.mia1.tfbnw.net
0.0.0.0 ae13.bb01.nrt1.tfbnw.net
0.0.0.0 ae13.bb01.sin1.tfbnw.net
0.0.0.0 ae13.bb02.lhr2.tfbnw.net
0.0.0.0 ae13.bb02.mia1.tfbnw.net
0.0.0.0 ae13.bb03.atn1.tfbnw.net
0.0.0.0 ae13.bb03.frc3.tfbnw.net
0.0.0.0 ae13.bb03.prn2.tfbnw.net
0.0.0.0 ae13.bb03.sjc1.tfbnw.net
0.0.0.0 ae13.bb04.atn1.tfbnw.net
0.0.0.0 ae13.bb04.frc3.tfbnw.net
0.0.0.0 ae13.bb04.prn2.tfbnw.net
0.0.0.0 ae13.bb04.sjc1.tfbnw.net
0.0.0.0 ae13.bb05.lla1.tfbnw.net
0.0.0.0 ae13.bb06.lla1.tfbnw.net
0.0.0.0 ae13.br01.mad1.tfbnw.net
0.0.0.0 ae13.br01.mxp1.tfbnw.net
0.0.0.0 ae13.br01.tpe1.tfbnw.net
0.0.0.0 ae13.br01.vie1.tfbnw.net
0.0.0.0 ae13.br02.mxp1.tfbnw.net
0.0.0.0 ae13.br02.vie1.tfbnw.net
0.0.0.0 ae13.dr01.atn1.tfbnw.net
0.0.0.0 ae13.dr01.frc1.tfbnw.net
0.0.0.0 ae13.dr02.atn1.tfbnw.net
0.0.0.0 ae13.dr02.frc1.tfbnw.net
0.0.0.0 ae13.dr03.atn1.tfbnw.net
0.0.0.0 ae13.dr03.frc1.tfbnw.net
0.0.0.0 ae13.dr04.atn1.tfbnw.net
0.0.0.0 ae13.dr04.frc1.tfbnw.net
0.0.0.0 ae13.dr05.prn1.tfbnw.net
0.0.0.0 ae13.pr01.ams2.tfbnw.net
0.0.0.0 ae13.pr01.atl1.tfbnw.net
0.0.0.0 ae13.pr01.cdg1.tfbnw.net
0.0.0.0 ae13.pr01.hkg1.tfbnw.net
0.0.0.0 ae13.pr01.iad3.tfbnw.net
0.0.0.0 ae13.pr01.lhr2.tfbnw.net
0.0.0.0 ae13.pr01.mia1.tfbnw.net
0.0.0.0 ae13.pr01.ord1.tfbnw.net
0.0.0.0 ae13.pr01.sea1.tfbnw.net
0.0.0.0 connect.facebook.net.edgekey.net
0.0.0.0 ct-m-fbx.fbsbx.com
0.0.0.0 facebook-web-clients.appspot.com
0.0.0.0 fb.me
0.0.0.0 fbcdn-profile-a.akamaihd.net
0.0.0.0 h-ct-m-fbx.fbsbx.com.online-metrix.net
0.0.0.0 sac-h-ct-m-fbx.fbsbx.com.online-metrix.net
0.0.0.0 messenger.com
0.0.0.0 m.me
0.0.0.0 fb.com
0.0.0.0 newsroom.fb.com
0.0.0.0 investor.fb.com
0.0.0.0 a3.sphotos.ak.fbcdn.net
0.0.0.0 ash1.fbcdn.net
0.0.0.0 cdg2.fbcdn.net
0.0.0.0 edge-oculus-shv-01-lga3.fbcdn.net
0.0.0.0 edge-oculus-shv-01-mia3.fbcdn.net
0.0.0.0 edge-oculus-shv-01-sea1.fbcdn.net
0.0.0.0 edge-oculus-shv-01-sjc2.fbcdn.net
0.0.0.0 edge-oculus-shv-01-yyz1.fbcdn.net
0.0.0.0 edge-sonar-mini-shv-01-bru2.fbcdn.net
0.0.0.0 edge-sonar-mini-shv-01-kul1.fbcdn.net
0.0.0.0 edge-sonar-mini-shv-01-lht6.fbcdn.net
0.0.0.0 edge-sonar-mini-shv-01-ord1.fbcdn.net
0.0.0.0 edge-sonar-mini-shv-01-ort2.fbcdn.net
0.0.0.0 edge-sonar-mini-shv-07-frc3.fbcdn.net
0.0.0.0 edge-video-shv-01-ams2.fbcdn.net
0.0.0.0 edge-video-shv-01-ams3.fbcdn.net
0.0.0.0 edge-video-shv-01-arn2.fbcdn.net
0.0.0.0 edge-video-shv-01-at13.fbcdn.net
0.0.0.0 edge-video-shv-01-atl3.fbcdn.net
0.0.0.0 edge-video-shv-01-bru2.fbcdn.net
0.0.0.0 edge-video-shv-01-cdg2.fbcdn.net
0.0.0.0 edge-video-shv-01-dft4.fbcdn.net
0.0.0.0 edge-video-shv-01-dfw1.fbcdn.net
0.0.0.0 edge-video-shv-01-dfw5.fbcdn.net
0.0.0.0 edge-video-shv-01-fra3.fbcdn.net
0.0.0.0 edge-video-shv-01-frt3.fbcdn.net
0.0.0.0 edge-video-shv-01-gru2.fbcdn.net
0.0.0.0 edge-video-shv-01-hkg3.fbcdn.net
0.0.0.0 edge-video-shv-01-iad3.fbcdn.net
0.0.0.0 edge-video-shv-01-kul1.fbcdn.net
0.0.0.0 edge-video-shv-01-kut2.fbcdn.net
0.0.0.0 edge-video-shv-01-lax3.fbcdn.net
0.0.0.0 edge-video-shv-01-lga1.fbcdn.net
0.0.0.0 edge-video-shv-01-lga3.fbcdn.net
0.0.0.0 edge-video-shv-01-lhr3.fbcdn.net
0.0.0.0 edge-video-shv-01-mia1.fbcdn.net
0.0.0.0 edge-video-shv-01-mia3.fbcdn.net
0.0.0.0 edge-video-shv-01-mrs1.fbcdn.net
0.0.0.0 edge-video-shv-01-nrt1.fbcdn.net
0.0.0.0 edge-video-shv-01-ord1.fbcdn.net
0.0.0.0 edge-video-shv-01-ort2.fbcdn.net
0.0.0.0 edge-video-shv-01-sea1.fbcdn.net
0.0.0.0 edge-video-shv-01-sin6.fbcdn.net
0.0.0.0 edge-video-shv-01-sit4.fbcdn.net
0.0.0.0 edge-video-shv-01-syd2.fbcdn.net
0.0.0.0 edge-video-shv-01-vie1.fbcdn.net
0.0.0.0 edge-video-shv-01-waw1.fbcdn.net
0.0.0.0 edge-video-shv-01-yyz1.fbcdn.net
0.0.0.0 edge-video-shv-02-dft4.fbcdn.net
0.0.0.0 edge-video-shv-02-sin6.fbcdn.net
0.0.0.0 external.fapa1-1.fna.fbcdn.net
0.0.0.0 external.fauh1-1.fna.fbcdn.net
0.0.0.0 external.fbkk10-1.fna.fbcdn.net
0.0.0.0 external.fbna1-1.fna.fbcdn.net
0.0.0.0 external.fbsb1-1.fna.fbcdn.net
0.0.0.0 external.fceb1-1.fna.fbcdn.net
0.0.0.0 external.fcmb1-1.fna.fbcdn.net
0.0.0.0 external.fdel11-1.fna.fbcdn.net
0.0.0.0 external.fdxb1-1.fna.fbcdn.net
0.0.0.0 external.ffor10-1.fna.fbcdn.net
0.0.0.0 external.fhan5-2.fna.fbcdn.net
0.0.0.0 external.fhfa1-1.fna.fbcdn.net
0.0.0.0 external.fhkg2-1.fna.fbcdn.net
0.0.0.0 external.fjnb1-1.fna.fbcdn.net
0.0.0.0 external.fkul10-1.fna.fbcdn.net
0.0.0.0 external.fkul8-1.fna.fbcdn.net
0.0.0.0 external.fmaa1-1.fna.fbcdn.net
0.0.0.0 external.fmnl10-1.fna.fbcdn.net
0.0.0.0 external.fpra1-1.fna.fbcdn.net
0.0.0.0 external.frec10-1.fna.fbcdn.net
0.0.0.0 external.fsdu10-1.fna.fbcdn.net
0.0.0.0 external.fsdu11-1.fna.fbcdn.net
0.0.0.0 external.fsea1-1.fna.fbcdn.net
0.0.0.0 external.ftpa1-1.fna.fbcdn.net
0.0.0.0 external.fvit1-1.fna.fbcdn.net
0.0.0.0 external-cdt1-1.xx.fbcdn.net
0.0.0.0 external-frt3-2.xx.fbcdn.net
0.0.0.0 external-hkg3-1.xx.fbcdn.net
0.0.0.0 external-ort2-1.xx.fbcdn.net
0.0.0.0 f6eec677a80kdno4pyq-kxornjlf1521512613-sonar.xz.fbcdn.net
0.0.0.0 f91858abe80k2geylvi-zhianuzp1521559729-sonar.xx.fbcdn.net
0.0.0.0 fb4708f8e80kdno4pyq-bigworkf1521512717-sonar.xz.fbcdn.net
0.0.0.0 fmel2-1.fbcdn.net
0.0.0.0 fna.fbcdn.net
0.0.0.0 fna-fbcdn-shv-01-fmaa1.fbcdn.net
0.0.0.0 fna-fbcdn-shv-02-fdet1.fbcdn.net
0.0.0.0 fna-fbcdn-shv-02-fsnc1.fbcdn.net
0.0.0.0 fna-fbcdn-video-shv-01-ffjr1.fbcdn.net
0.0.0.0 hphotos-sea1.fbcdn.net
0.0.0.0 instagram.facc1-1.fna.fbcdn.net
0.0.0.0 instagram.fada1-1.fna.fbcdn.net
0.0.0.0 instagram.fada1-10.fna.fbcdn.net
0.0.0.0 instagram.faep10-1.fna.fbcdn.net
0.0.0.0 instagram.fala1-1.fna.fbcdn.net
0.0.0.0 instagram.fala4-2.fna.fbcdn.net
0.0.0.0 instagram.fapa1-1.fna.fbcdn.net
0.0.0.0 instagram.faqa1-1.fna.fbcdn.net
0.0.0.0 instagram.fatl1-2.fna.fbcdn.net
0.0.0.0 instagram.fbey10-1.fna.fbcdn.net
0.0.0.0 instagram.fbfh10-1.fna.fbcdn.net
0.0.0.0 instagram.fbga1-1.fna.fbcdn.net
0.0.0.0 instagram.fbkk10-1.fna.fbcdn.net
0.0.0.0 instagram.fbkk11-1.fna.fbcdn.net
0.0.0.0 instagram.fbma1-1.fna.fbcdn.net
0.0.0.0 instagram.fbna1-1.fna.fbcdn.net
0.0.0.0 instagram.fbna1-2.fna.fbcdn.net
0.0.0.0 instagram.fbom10-1.fna.fbcdn.net
0.0.0.0 instagram.fbom11-1.fna.fbcdn.net
0.0.0.0 instagram.fbsb10-1.fna.fbcdn.net
0.0.0.0 instagram.fbsb1-1.fna.fbcdn.net
0.0.0.0 instagram.fbsb11-1.fna.fbcdn.net
0.0.0.0 instagram.fbtz1-10.fna.fbcdn.net
0.0.0.0 instagram.fcac1-1.fna.fbcdn.net
0.0.0.0 instagram.fcbb1-1.fna.fbcdn.net
0.0.0.0 instagram.fceb1-1.fna.fbcdn.net
0.0.0.0 instagram.fcgb1-1.fna.fbcdn.net
0.0.0.0 instagram.fcgh10-1.fna.fbcdn.net
0.0.0.0 instagram.fcgh11-1.fna.fbcdn.net
0.0.0.0 instagram.fcgh3-1.fna.fbcdn.net
0.0.0.0 instagram.fcgk10-1.fna.fbcdn.net
0.0.0.0 instagram.fcgk9-1.fna.fbcdn.net
0.0.0.0 instagram.fcmb1-1.fna.fbcdn.net
0.0.0.0 instagram.fcwb1-1.fna.fbcdn.net
0.0.0.0 instagram.fdac1-1.fna.fbcdn.net
0.0.0.0 instagram.fdel11-1.fna.fbcdn.net
0.0.0.0 instagram.fdla1-1.fna.fbcdn.net
0.0.0.0 instagram.fdpa1-1.fna.fbcdn.net
0.0.0.0 instagram.fdsa1-1.fna.fbcdn.net
0.0.0.0 instagram.fdub1-1.fna.fbcdn.net
0.0.0.0 instagram.fdxb1-1.fna.fbcdn.net
0.0.0.0 instagram.ffor10-1.fna.fbcdn.net
0.0.0.0 instagram.ffor11-1.fna.fbcdn.net
0.0.0.0 instagram.ffor20-1.fna.fbcdn.net
0.0.0.0 instagram.fgua1-1.fna.fbcdn.net
0.0.0.0 instagram.fgva1-1.fna.fbcdn.net
0.0.0.0 instagram.fgza1-1.fna.fbcdn.net
0.0.0.0 instagram.fhfa1-1.fna.fbcdn.net
0.0.0.0 instagram.fiev10-1.fna.fbcdn.net
0.0.0.0 instagram.fiev11-1.fna.fbcdn.net
0.0.0.0 instagram.fisb1-1.fna.fbcdn.net
0.0.0.0 instagram.fiza1-1.fna.fbcdn.net
0.0.0.0 instagram.fjed2-1.fna.fbcdn.net
0.0.0.0 instagram.fjib1-1.fna.fbcdn.net
0.0.0.0 instagram.fjnb1-1.fna.fbcdn.net
0.0.0.0 instagram.fjpa1-1.fna.fbcdn.net
0.0.0.0 instagram.fkhi10-1.fna.fbcdn.net
0.0.0.0 instagram.fkul10-1.fna.fbcdn.net
0.0.0.0 instagram.fkul11-1.fna.fbcdn.net
0.0.0.0 instagram.fkwi10-1.fna.fbcdn.net
0.0.0.0 instagram.fldb1-1.fna.fbcdn.net
0.0.0.0 instagram.flju2-1.fna.fbcdn.net
0.0.0.0 instagram.flpb1-1.fna.fbcdn.net
0.0.0.0 instagram.fmaa1-1.fna.fbcdn.net
0.0.0.0 instagram.fmdc1-1.fna.fbcdn.net
0.0.0.0 instagram.fmea1-1.fna.fbcdn.net
0.0.0.0 instagram.fmel2-1.fna.fbcdn.net
0.0.0.0 instagram.fmex10-1.fna.fbcdn.net
0.0.0.0 instagram.fmia1-1.fna.fbcdn.net
0.0.0.0 instagram.fmnl10-1.fna.fbcdn.net
0.0.0.0 instagram.fmnl4-3.fna.fbcdn.net
0.0.0.0 instagram.fpac1-1.fna.fbcdn.net
0.0.0.0 instagram.fpbc1-1.fna.fbcdn.net
0.0.0.0 instagram.fpbc2-1.fna.fbcdn.net
0.0.0.0 instagram.fper2-1.fna.fbcdn.net
0.0.0.0 instagram.fplu10-1.fna.fbcdn.net
0.0.0.0 instagram.fplu11-1.fna.fbcdn.net
0.0.0.0 instagram.fpoa10-1.fna.fbcdn.net
0.0.0.0 instagram.fpoa1-1.fna.fbcdn.net
0.0.0.0 instagram.fpoa11-1.fna.fbcdn.net
0.0.0.0 instagram.fppb1-1.fna.fbcdn.net
0.0.0.0 instagram.fpra1-1.fna.fbcdn.net
0.0.0.0 instagram.frec11-1.fna.fbcdn.net
0.0.0.0 instagram.frix3-1.fna.fbcdn.net
0.0.0.0 instagram.fsaw1-10.fna.fbcdn.net
0.0.0.0 instagram.fscl10-1.fna.fbcdn.net
0.0.0.0 instagram.fscl11-1.fna.fbcdn.net
0.0.0.0 instagram.fsdu10-1.fna.fbcdn.net
0.0.0.0 instagram.fsdu11-1.fna.fbcdn.net
0.0.0.0 instagram.fsea1-1.fna.fbcdn.net
0.0.0.0 instagram.fssa10-1.fna.fbcdn.net
0.0.0.0 instagram.fssa1-1.fna.fbcdn.net
0.0.0.0 instagram.fssa11-1.fna.fbcdn.net
0.0.0.0 instagram.fsub1-1.fna.fbcdn.net
0.0.0.0 instagram.fszb1-1.fna.fbcdn.net
0.0.0.0 instagram.ftpa1-1.fna.fbcdn.net
0.0.0.0 instagram.fvdc1-1.fna.fbcdn.net
0.0.0.0 instagram.fvga1-1.fna.fbcdn.net
0.0.0.0 instagram.fwaw3-1.fna.fbcdn.net
0.0.0.0 instagram.fyka1-1.fna.fbcdn.net
0.0.0.0 instagram-p15-shv-01-iad3.fbcdn.net
0.0.0.0 instagram-p36-shv-01-mia1.fbcdn.net
0.0.0.0 instagram-p3-shv-01-ams3.fbcdn.net
0.0.0.0 instagram-p3-shv-01-amt2.fbcdn.net
0.0.0.0 instagram-p3-shv-01-arn2.fbcdn.net
0.0.0.0 instagram-p3-shv-01-atl3.fbcdn.net
0.0.0.0 instagram-p3-shv-01-bru2.fbcdn.net
0.0.0.0 instagram-p3-shv-01-cdg2.fbcdn.net
0.0.0.0 instagram-p3-shv-01-cdt1.fbcdn.net
0.0.0.0 instagram-p3-shv-01-dft4.fbcdn.net
0.0.0.0 instagram-p3-shv-01-dfw1.fbcdn.net
0.0.0.0 instagram-p3-shv-01-fra3.fbcdn.net
0.0.0.0 instagram-p3-shv-01-frt3.fbcdn.net
0.0.0.0 instagram-p3-shv-01-hkg3.fbcdn.net
0.0.0.0 instagram-p3-shv-01-iad3.fbcdn.net
0.0.0.0 instagram-p3-shv-01-kut2.fbcdn.net
0.0.0.0 instagram-p3-shv-01-lax3.fbcdn.net
0.0.0.0 instagram-p3-shv-01-lga3.fbcdn.net
0.0.0.0 instagram-p3-shv-01-lhr3.fbcdn.net
0.0.0.0 instagram-p3-shv-01-mad1.fbcdn.net
0.0.0.0 instagram-p3-shv-01-mia1.fbcdn.net
0.0.0.0 instagram-p3-shv-01-mrs1.fbcdn.net
0.0.0.0 instagram-p3-shv-01-mxp1.fbcdn.net
0.0.0.0 instagram-p3-shv-01-nrt1.fbcdn.net
0.0.0.0 instagram-p3-shv-01-ord1.fbcdn.net
0.0.0.0 instagram-p3-shv-01-ort2.fbcdn.net
0.0.0.0 instagram-p3-shv-01-sea1.fbcdn.net
0.0.0.0 instagram-p3-shv-01-sin6.fbcdn.net
0.0.0.0 instagram-p3-shv-01-sit4.fbcdn.net
0.0.0.0 instagram-p3--shv-01-sit4.fbcdn.net
0.0.0.0 instagram-p3-shv-01-sjc2.fbcdn.net
0.0.0.0 instagram-p3-shv-01-sjc3.fbcdn.net
0.0.0.0 instagram-p3-shv-01-vie1.fbcdn.net
0.0.0.0 instagram-p3-shv-01-waw1.fbcdn.net
0.0.0.0 instagram-p3-shv-01-yyz1.fbcdn.net
0.0.0.0 instagram-p3-shv-02-dft4.fbcdn.net
0.0.0.0 instagram-p3-shv-02-frt3.fbcdn.net
0.0.0.0 instagram-p3-shv-02-fru2.fbcdn.net
0.0.0.0 instagram-p3-shv-02-lax3.fbcdn.net
0.0.0.0 instagram-p3-shv-02-ort2.fbcdn.net
0.0.0.0 instagram-p3-shv-02-sin6.fbcdn.net
0.0.0.0 instagram-p3-shv-03-dft4.fbcdn.net
0.0.0.0 instagram-p42-shv-01-iad3.fbcdn.net
0.0.0.0 instagram-p42-shv-01-lga3.fbcdn.net
0.0.0.0 mia1.fbcdn.net
0.0.0.0 origincache-kb6-shv-10-frc1.fbcdn.net
0.0.0.0 origincache-lla.fbcdn.net
0.0.0.0 origincache-shv-04-ash5.fbcdn.net
0.0.0.0 origincache-xfa.fbcdn.net
0.0.0.0 origincache-xla.fbcdn.net
0.0.0.0 photos-snc1.fbcdn.net
0.0.0.0 scontent.facc1-1.fna.fbcdn.net
0.0.0.0 scontent.fada1-1.fna.fbcdn.net
0.0.0.0 scontent.fada1-10.fna.fbcdn.net
0.0.0.0 scontent.fapa1-1.fna.fbcdn.net
0.0.0.0 scontent.faqa1-1.fna.fbcdn.net
0.0.0.0 scontent.fbga1-1.fna.fbcdn.net
0.0.0.0 scontent.fbkk10-1.fna.fbcdn.net
0.0.0.0 scontent.fbkk11-1.fna.fbcdn.net
0.0.0.0 scontent.fbkk2-2.fna.fbcdn.net
0.0.0.0 scontent.fbkk2-4.fna.fbcdn.net
0.0.0.0 scontent.fbkk5-2.fna.fbcdn.net
0.0.0.0 scontent.fbma1-1.fna.fbcdn.net
0.0.0.0 scontent.fbna1-1.fna.fbcdn.net
0.0.0.0 scontent.fbom10-1.fna.fbcdn.net
0.0.0.0 scontent.fbom11-1.fna.fbcdn.net
0.0.0.0 scontent.fbru2-1.fna.fbcdn.net
0.0.0.0 scontent.fbsb1-1.fna.fbcdn.net
0.0.0.0 scontent.fbsb11-1.fna.fbcdn.net
0.0.0.0 scontent.fbze1-1.fna.fbcdn.net
0.0.0.0 scontent.fcac1-1.fna.fbcdn.net
0.0.0.0 scontent.fcbb1-1.fna.fbcdn.net
0.0.0.0 scontent.fceb1-1.fna.fbcdn.net
0.0.0.0 scontent.fcgb1-1.fna.fbcdn.net
0.0.0.0 scontent.fcgh10-1.fna.fbcdn.net
0.0.0.0 scontent.fcgh11-1.fna.fbcdn.net
0.0.0.0 scontent.fcgk10-1.fna.fbcdn.net
0.0.0.0 scontent.fcha1-1.fna.fbcdn.net
0.0.0.0 scontent.fcia1-1.fna.fbcdn.net
0.0.0.0 scontent.fcmb1-1.fna.fbcdn.net
0.0.0.0 scontent.fcpq5-1.fna.fbcdn.net
0.0.0.0 scontent.fcwb1-1.fna.fbcdn.net
0.0.0.0 scontent.fdac1-1.fna.fbcdn.net
0.0.0.0 scontent.fdel10-1.fna.fbcdn.net
0.0.0.0 scontent.fdel11-1.fna.fbcdn.net
0.0.0.0 scontent.fdla1-1.fna.fbcdn.net
0.0.0.0 scontent.fdnk1-1.fna.fbcdn.net
0.0.0.0 scontent.fdpa1-1.fna.fbcdn.net
0.0.0.0 scontent.fdsa1-1.fna.fbcdn.net
0.0.0.0 scontent.fdxb1-1.fna.fbcdn.net
0.0.0.0 scontent.febb1-1.fna.fbcdn.net
0.0.0.0 scontent.feoh1-1.fna.fbcdn.net
0.0.0.0 scontent.ffco3-1.fna.fbcdn.net
0.0.0.0 scontent.ffor10-1.fna.fbcdn.net
0.0.0.0 scontent.ffor11-1.fna.fbcdn.net
0.0.0.0 scontent.ffru1-1.fna.fbcdn.net
0.0.0.0 scontent.fgdl5-1.fna.fbcdn.net
0.0.0.0 scontent.fgua1-1.fna.fbcdn.net
0.0.0.0 scontent.fhel1-1.fna.fbcdn.net
0.0.0.0 scontent.fhel2-1.fna.fbcdn.net
0.0.0.0 scontent.fhel5-1.fna.fbcdn.net
0.0.0.0 scontent.fhen1-1.fna.fbcdn.net
0.0.0.0 scontent.fhfa1-1.fna.fbcdn.net
0.0.0.0 scontent.fhkg10-1.fna.fbcdn.net
0.0.0.0 scontent.fhkg2-1.fna.fbcdn.net
0.0.0.0 scontent.fhkg4-2.fna.fbcdn.net
0.0.0.0 scontent.fiev10-1.fna.fbcdn.net
0.0.0.0 scontent.fiev1-1.fna.fbcdn.net
0.0.0.0 scontent.fiev11-1.fna.fbcdn.net
0.0.0.0 scontent.fiev6-1.fna.fbcdn.net
0.0.0.0 scontent.fiev8-1.fna.fbcdn.net
0.0.0.0 scontent.fisb1-1.fna.fbcdn.net
0.0.0.0 scontent.fisb5-1.fna.fbcdn.net
0.0.0.0 scontent.fjib1-1.fna.fbcdn.net
0.0.0.0 scontent.fjnb1-1.fna.fbcdn.net
0.0.0.0 scontent.fjnb3-1.fna.fbcdn.net
0.0.0.0 scontent.fjpa1-1.fna.fbcdn.net
0.0.0.0 scontent.fkgf1-1.fna.fbcdn.net
0.0.0.0 scontent.fkhi10-1.fna.fbcdn.net
0.0.0.0 scontent.fkul10-1.fna.fbcdn.net
0.0.0.0 scontent.fkul11-1.fna.fbcdn.net
0.0.0.0 scontent.fkul4-1.fna.fbcdn.net
0.0.0.0 scontent.fkul8-1.fna.fbcdn.net
0.0.0.0 scontent.fkwi10-1.fna.fbcdn.net
0.0.0.0 scontent.flim10-1.fna.fbcdn.net
0.0.0.0 scontent.flim1-2.fna.fbcdn.net
0.0.0.0 scontent.flis1-1.fna.fbcdn.net
0.0.0.0 scontent.flpb1-1.fna.fbcdn.net
0.0.0.0 scontent.flwo1-1.fna.fbcdn.net
0.0.0.0 scontent.fmaa1-1.fna.fbcdn.net
0.0.0.0 scontent.fmba1-1.fna.fbcdn.net
0.0.0.0 scontent.fmdc1-1.fna.fbcdn.net
0.0.0.0 scontent.fmea1-1.fna.fbcdn.net
0.0.0.0 scontent.fmex10-1.fna.fbcdn.net
0.0.0.0 scontent.fmex11-1.fna.fbcdn.net
0.0.0.0 scontent.fmex8-2.fna.fbcdn.net
0.0.0.0 scontent.fmga1-1.fna.fbcdn.net
0.0.0.0 scontent.fmia1-1.fna.fbcdn.net
0.0.0.0 scontent.fmla1-1.fna.fbcdn.net
0.0.0.0 scontent.fmnl10-1.fna.fbcdn.net
0.0.0.0 scontent.fmnl11-1.fna.fbcdn.net
0.0.0.0 scontent.fmnl4-4.fna.fbcdn.net
0.0.0.0 scontent.fmnl6-1.fna.fbcdn.net
0.0.0.0 scontent.fosl1-1.fna.fbcdn.net
0.0.0.0 scontent.fpac1-1.fna.fbcdn.net
0.0.0.0 scontent.fpbc1-1.fna.fbcdn.net
0.0.0.0 scontent.fpbc2-1.fna.fbcdn.net
0.0.0.0 scontent.fpfb1-1.fna.fbcdn.net
0.0.0.0 scontent.fphl2-2.fna.fbcdn.net
0.0.0.0 scontent.fplu10-1.fna.fbcdn.net
0.0.0.0 scontent.fplu11-1.fna.fbcdn.net
0.0.0.0 scontent.fpoa10-1.fna.fbcdn.net
0.0.0.0 scontent.fpoa1-1.fna.fbcdn.net
0.0.0.0 scontent.fpoa11-1.fna.fbcdn.net
0.0.0.0 scontent.fpra1-1.fna.fbcdn.net
0.0.0.0 scontent.fqpa1-1.fna.fbcdn.net
0.0.0.0 scontent.frec10-1.fna.fbcdn.net
0.0.0.0 scontent.frec11-1.fna.fbcdn.net
0.0.0.0 scontent.fria1-1.fna.fbcdn.net
0.0.0.0 scontent.fsaw1-10.fna.fbcdn.net
0.0.0.0 scontent.fscl10-1.fna.fbcdn.net
0.0.0.0 scontent.fscl11-1.fna.fbcdn.net
0.0.0.0 scontent.fsdu10-1.fna.fbcdn.net
0.0.0.0 scontent.fsdu11-1.fna.fbcdn.net
0.0.0.0 scontent.fsea1-1.fna.fbcdn.net
0.0.0.0 scontent.fsjo1-1.fna.fbcdn.net
0.0.0.0 scontent.fssa10-1.fna.fbcdn.net
0.0.0.0 scontent.fssa1-1.fna.fbcdn.net
0.0.0.0 scontent.fssa11-1.fna.fbcdn.net
0.0.0.0 scontent.fsst1-2.fna.fbcdn.net
0.0.0.0 scontent.fsub1-1.fna.fbcdn.net
0.0.0.0 scontent.fszb1-1.fna.fbcdn.net
0.0.0.0 scontent.ftbs1-1.fna.fbcdn.net
0.0.0.0 scontent.ftbs4-1.fna.fbcdn.net
0.0.0.0 scontent.ftpa1-1.fna.fbcdn.net
0.0.0.0 scontent.ftpa1-2.fna.fbcdn.net
0.0.0.0 scontent.ftpe3-2.fna.fbcdn.net
0.0.0.0 scontent.ftpe4-1.fna.fbcdn.net
0.0.0.0 scontent.ftpe7-3.fna.fbcdn.net
0.0.0.0 scontent.ftpe7-4.fna.fbcdn.net
0.0.0.0 scontent.ftun3-1.fna.fbcdn.net
0.0.0.0 scontent.fuln6-1.fna.fbcdn.net
0.0.0.0 scontent.fvca1-1.fna.fbcdn.net
0.0.0.0 scontent.fwaw5-1.fna.fbcdn.net
0.0.0.0 scontent.fwbw1-1.fna.fbcdn.net
0.0.0.0 scontent.fybz2-2.fna.fbcdn.net
0.0.0.0 scontent.fymy1-2.fna.fbcdn.net
0.0.0.0 scontent-amt2-1.xx.fbcdn.net
0.0.0.0 scontent-arn2-1.xx.fbcdn.net
0.0.0.0 scontent-bom1-1.xx.fbcdn.net
0.0.0.0 scontent-cdg2-1.xx.fbcdn.net
0.0.0.0 scontent-cdt1-1.xx.fbcdn.net
0.0.0.0 scontent-dfw5-1.xx.fbcdn.net
0.0.0.0 scontent-frt3-1.xx.fbcdn.net
0.0.0.0 scontent-frt3-2.xx.fbcdn.net
0.0.0.0 scontent-frx5-1.xx.fbcdn.net
0.0.0.0 scontent-hkg3-1.xx.fbcdn.net
0.0.0.0 scontent-hkg3-2.xx.fbcdn.net
0.0.0.0 scontent-icn1-1.xx.fbcdn.net
0.0.0.0 scontent-lax3-2.xx.fbcdn.net
0.0.0.0 scontent-lhr3-1.xx.fbcdn.net
0.0.0.0 scontent-lht6-1.xx.fbcdn.net
0.0.0.0 scontent-nrt1-1.xx.fbcdn.net
0.0.0.0 scontent-otp1-1.xx.fbcdn.net
0.0.0.0 scontent-sea1-1.xx.fbcdn.net
0.0.0.0 scontent-sit4-1.xx.fbcdn.net
0.0.0.0 scontent-sof1-1.xx.fbcdn.net
0.0.0.0 scontent-tpe1-1.xx.fbcdn.net
0.0.0.0 scontent-vie1-1.xx.fbcdn.net
0.0.0.0 scontent-waw1-1.xx.fbcdn.net
0.0.0.0 secure-media.fbcdn.net
0.0.0.0 secure-media-snc1.fbcdn.net
0.0.0.0 sonar.fbsb1-1.fna.fbcdn.net
0.0.0.0 sonar.fgua1-1.fna.fbcdn.net
0.0.0.0 sonar.fmaa1-1.fna.fbcdn.net
0.0.0.0 sonar.fsea1-1.fna.fbcdn.net
0.0.0.0 sonar.ftpa1-1.fna.fbcdn.net
0.0.0.0 sphotos.ak.fbcdn.net
0.0.0.0 sphotos-a.ak.fbcdn.net
0.0.0.0 sphotos-h.ak.fbcdn.net
0.0.0.0 static.fdel11-1.fna.fbcdn.net
0.0.0.0 static.fsea1-1.fna.fbcdn.net
0.0.0.0 video.facc1-1.fna.fbcdn.net
0.0.0.0 video.fada1-10.fna.fbcdn.net
0.0.0.0 video.fapa1-1.fna.fbcdn.net
0.0.0.0 video.faqa1-1.fna.fbcdn.net
0.0.0.0 video.fbga1-1.fna.fbcdn.net
0.0.0.0 video.fbkk10-1.fna.fbcdn.net
0.0.0.0 video.fbru2-1.fna.fbcdn.net
0.0.0.0 video.fbsb1-1.fna.fbcdn.net
0.0.0.0 video.fcbb1-1.fna.fbcdn.net
0.0.0.0 video.fceb1-1.fna.fbcdn.net
0.0.0.0 video.fcgh10-1.fna.fbcdn.net
0.0.0.0 video.fcgh11-1.fna.fbcdn.net
0.0.0.0 video.fcmb1-1.fna.fbcdn.net
0.0.0.0 video.fdac1-1.fna.fbcdn.net
0.0.0.0 video.fdel11-1.fna.fbcdn.net
0.0.0.0 video.fdxb1-1.fna.fbcdn.net
0.0.0.0 video.fevn1-1.fna.fbcdn.net
0.0.0.0 video.ffjr1-3.fna.fbcdn.net
0.0.0.0 video.ffor10-1.fna.fbcdn.net
0.0.0.0 video.ffor11-1.fna.fbcdn.net
0.0.0.0 video.fhfa1-1.fna.fbcdn.net
0.0.0.0 video.fiev10-1.fna.fbcdn.net
0.0.0.0 video.fjpa1-1.fna.fbcdn.net
0.0.0.0 video.fkhi10-1.fna.fbcdn.net
0.0.0.0 video.flpb1-1.fna.fbcdn.net
0.0.0.0 video.fmaa1-1.fna.fbcdn.net
0.0.0.0 video.fmdc1-1.fna.fbcdn.net
0.0.0.0 video.fmex10-1.fna.fbcdn.net
0.0.0.0 video.fmia1-1.fna.fbcdn.net
0.0.0.0 video.fmla1-1.fna.fbcdn.net
0.0.0.0 video.fmnl10-1.fna.fbcdn.net
0.0.0.0 video.fphx1-1.fbcdn.net
0.0.0.0 video.fpoa10-1.fna.fbcdn.net
0.0.0.0 video.fpoa1-1.fna.fbcdn.net
0.0.0.0 video.fpoa11-1.fna.fbcdn.net
0.0.0.0 video.fpra1-1.fna.fbcdn.net
0.0.0.0 video.fria1-1.fna.fbcdn.net
0.0.0.0 video.fsaw1-10.fna.fbcdn.net
0.0.0.0 video.fscl10-1.fna.fbcdn.net
0.0.0.0 video.fscl11-1.fna.fbcdn.net
0.0.0.0 video.fsdu10-1.fna.fbcdn.net
0.0.0.0 video.fsdu11-1.fna.fbcdn.net
0.0.0.0 video.fsea1-1.fna.fbcdn.net
0.0.0.0 video.fsnc1-1.fna.fbcdn.net
0.0.0.0 video.fssa10-1.fna.fbcdn.net
0.0.0.0 video.fssa1-1.fna.fbcdn.net
0.0.0.0 video.ftpa1-1.fna.fbcdn.net
0.0.0.0 video.fvit1-1.fna.fbcdn.net
0.0.0.0 video.xx.fbcdn.net
0.0.0.0 video-hkg3-1.xx.fbcdn.net
0.0.0.0 video-sof1-1.xx.fbcdn.net
0.0.0.0 xx-fbcdn6-shv-01-atl3.fbcdn.net
0.0.0.0 xx-fbcdn6-shv-01-lax3.fbcdn.net
0.0.0.0 xx-fbcdn-ecmp-02-atl1.fbcdn.net
0.0.0.0 xx-fbcdn-ecmp-02-ord1.fbcdn.net
0.0.0.0 xx-fbcdn-ecmp-04-sjc1.fbcdn.net
0.0.0.0 xx-fbcdn-ecmp-05-iad1.fbcdn.net
0.0.0.0 xx-fbcdn-shv-01-amt2.fbcdn.net
0.0.0.0 xx-fbcdn-shv-01-arn2.fbcdn.net
0.0.0.0 xx-fbcdn-shv-01-ash5.fbcdn.net
0.0.0.0 xx-fbcdn-shv-01-atl3.fbcdn.net
0.0.0.0 xx-fbcdn-shv-01-bog1.fbcdn.net
0.0.0.0 xx-fbcdn-shv-01-bom1.fbcdn.net
0.0.0.0 xx-fbcdn-shv-01-cai1.fbcdn.net
0.0.0.0 xx-fbcdn-shv-01-dft4.fbcdn.net
0.0.0.0 xx-fbcdn-shv-01-dfw5.fbcdn.net
0.0.0.0 xx-fbcdn-shv-01-eze1.fbcdn.net
0.0.0.0 xx-fbcdn-shv-01-frt3.fbcdn.net
0.0.0.0 xx-fbcdn-shv-01-gru2.fbcdn.net
0.0.0.0 xx-fbcdn-shv-01-hkg1.fbcdn.net
0.0.0.0 xx-fbcdn-shv-01-hkg3.fbcdn.net
0.0.0.0 xx-fbcdn-shv-01-icn1.fbcdn.net
0.0.0.0 xx-fbcdn-shv-01-kul1.fbcdn.net
0.0.0.0 xx-fbcdn-shv-01-kut2.fbcdn.net
0.0.0.0 xx-fbcdn-shv-01-lax3.fbcdn.net
0.0.0.0 xx-fbcdn-shv-01-lga3.fbcdn.net
0.0.0.0 xx-fbcdn-shv-01-lht6.fbcdn.net
0.0.0.0 xx-fbcdn-shv-01-mia3.fbcdn.net
0.0.0.0 xx-fbcdn-shv-01-ort2.fbcdn.net
0.0.0.0 xx-fbcdn-shv-01-scl1.fbcdn.net
0.0.0.0 xx-fbcdn-shv-01-sin6.fbcdn.net
0.0.0.0 xx-fbcdn-shv-01-sit4.fbcdn.net
0.0.0.0 xx-fbcdn-shv-01-syd2.fbcdn.net
0.0.0.0 xx-fbcdn-shv-01-tpe1.fbcdn.net
0.0.0.0 xx-fbcdn-shv-01-waw1.fbcdn.net
0.0.0.0 xx-fbcdn-shv-01-yyz1.fbcdn.net
0.0.0.0 xx-fbcdn-shv-02-ams2.fbcdn.net
0.0.0.0 xx-fbcdn-shv-02-dft4.fbcdn.net
0.0.0.0 xx-fbcdn-shv-02-frt3.fbcdn.net
0.0.0.0 xx-fbcdn-shv-02-hkg1.fbcdn.net
0.0.0.0 xx-fbcdn-shv-02-hkg3.fbcdn.net
0.0.0.0 xx-fbcdn-shv-02-lax3.fbcdn.net
0.0.0.0 xx-fbcdn-shv-02-mia1.fbcdn.net
0.0.0.0 xx-fbcdn-shv-02-mia3.fbcdn.net
0.0.0.0 xx-fbcdn-shv-02-ord1.fbcdn.net
0.0.0.0 xx-fbcdn-shv-02-ort2.fbcdn.net
0.0.0.0 xx-fbcdn-shv-02-sin6.fbcdn.net
0.0.0.0 xx-fbcdn-shv-03-atn1.fbcdn.net
0.0.0.0 xx-fbcdn-shv-03-lax1.fbcdn.net
0.0.0.0 xx-fbcdn-shv-03-sin1.fbcdn.net
0.0.0.0 xx-fbcdn-shv-04-lax1.fbcdn.net
0.0.0.0 xx-fbcdn-shv-04-sjc1.fbcdn.net
0.0.0.0 xx-fbcdn-shv-05-dfw1.fbcdn.net
0.0.0.0 xx-fbcdn-shv-05-iad1.fbcdn.net
0.0.0.0 xx-fbcdn-shv-05-mia1.fbcdn.net
0.0.0.0 xx-fbcdn-shv-06-dfw1.fbcdn.net
0.0.0.0 xx-fbcdn-shv-06-lga1.fbcdn.net
0.0.0.0 xx-fbcdn-shv-11-lhr3.fbcdn.net
0.0.0.0 z-1-external.fsea1-1.fna.fbcdn.net
0.0.0.0 z-1-scontent.fmaa1-1.fna.fbcdn.net
0.0.0.0 z-1-scontent.fpoa10-1.fna.fbcdn.net
0.0.0.0 z-1-video.fpoa10-1.fna.fbcdn.net
0.0.0.0 z-1-video.fszb1-1.fna.fbcdn.net
0.0.0.0 z-m-fbcdn-mini-shv-01-ord1.fbcdn.net
0.0.0.0 z-m-fbcdn-shv-01-frt3.fbcdn.net
0.0.0.0 z-m-scontent.fceb1-1.fna.fbcdn.net
0.0.0.0 z-m-scontent.fdac1-1.fna.fbcdn.net
0.0.0.0 z-m-scontent.fmex10-1.fna.fbcdn.net
0.0.0.0 z-p3-external.fmdc1-1.fna.fbcdn.net
0.0.0.0 z-p3-external.fsdu11-1.fna.fbcdn.net
0.0.0.0 z-p3-external.fsea1-1.fna.fbcdn.net
0.0.0.0 z-p3-scontent.facc1-1.fna.fbcdn.net
0.0.0.0 z-p3-scontent.faqa1-1.fna.fbcdn.net
0.0.0.0 z-p3-scontent.fbga1-1.fna.fbcdn.net
0.0.0.0 z-p3-scontent.fbsb1-1.fna.fbcdn.net
0.0.0.0 z-p3-scontent.fbsb11-1.fna.fbcdn.net
0.0.0.0 z-p3-scontent.fcgh11-1.fna.fbcdn.net
0.0.0.0 z-p3-scontent.fdac1-1.fna.fbcdn.net
0.0.0.0 z-p3-scontent.fdxb1-1.fna.fbcdn.net
0.0.0.0 z-p3-scontent.ffor10-1.fna.fbcdn.net
0.0.0.0 z-p3-scontent.ffor11-1.fna.fbcdn.net
0.0.0.0 z-p3-scontent.fjpa1-1.fna.fbcdn.net
0.0.0.0 z-p3-scontent.fmga1-1.fna.fbcdn.net
0.0.0.0 z-p3-scontent.fmnl10-1.fna.fbcdn.net
0.0.0.0 z-p3-scontent.fpfb1-1.fna.fbcdn.net
0.0.0.0 z-p3-scontent.fplu11-1.fna.fbcdn.net
0.0.0.0 z-p3-scontent.frec11-1.fna.fbcdn.net
0.0.0.0 z-p3-scontent.fsdu10-1.fna.fbcdn.net
0.0.0.0 z-p3-scontent.fsdu11-1.fna.fbcdn.net
0.0.0.0 z-p3-scontent.fsea1-1.fna.fbcdn.net
0.0.0.0 z-p3-scontent.fsub1-1.fna.fbcdn.net
0.0.0.0 z-p3-scontent.ftpa1-1.fna.fbcdn.net
0.0.0.0 z-p3-scontent-lax3-1.xx.fbcdn.net
0.0.0.0 z-p3-video.flpb1-1.fna.fbcdn.net
0.0.0.0 z-p3-video.fpfb1-1.fna.fbcdn.net
0.0.0.0 z-p3-video.fsea1-1.fna.fbcdn.net
0.0.0.0 z-p3-video-vie1-1.xx.fbcdn.net
0.0.0.0 touch.facebook.com
0.0.0.0 scontent.fmex5-1.fna.fbcdn.net
0.0.0.0 external.fmex5-1.fna.fbcdn.net
0.0.0.0 es-la.facebook.com

############################################
# To Completely Block Facebook - IPv6 Version
# Add these entries below to your hosts file
#
# Your hosts file Location:
# Linux, Unix and Mac OS X  -> /etc/hosts
# Windows XP, Vista and Windows 7 ->  C:\WINDOWS\system32\drivers\etc\hosts
# Windows 2000  -> C:\WINNT\system32\drivers\etc\hosts
# Windows 98/ME ->  C:\WINDOWS\hosts 
# 
# You can edit the hosts file with any text editor
#
# On Windows 7, the default AV security scan will try to remove the
# facebook.com entry; you'll need to add an exception to tell the OS
# to keep the block listing in the hosts file and not to remove it
#
############################################

::1 apps.facebook.com
::1 connect.facebook.net
::1 facebook.com
::1 fbcdn.com
::1 fbsbx.com
::1 fbcdn.net
::1 graph.facebook.com
::1 login.facebook.com
::1 s-static.ak.facebook.com
::1 static.ak.connect.facebook.com
::1 static.ak.fbcdn.net
::1 www.connect.facebook.net
::1 www.facebook.com
::1 www.fbcdn.com
::1 www.fbcdn.net
::1 www.graph.facebook.com
::1 www.login.facebook.com
::1 www.s-static.ak.facebook.com
::1 www.static.ak.connect.facebook.com
::1 www.static.ak.fbcdn.net
::1 0-edge-chat.facebook.com
::1 1-edge-chat.facebook.com
::1 2-edge-chat.facebook.com
::1 3-edge-chat.facebook.com
::1 4-edge-chat.facebook.com
::1 5-edge-chat.facebook.com
::1 6-edge-chat.facebook.com
::1 alpha-shv-03-ash5.facebook.com
::1 alpha-shv-03-atn1.facebook.com
::1 alpha-shv-03-lla1.facebook.com
::1 alpha-shv-04-prn2.facebook.com
::1 alpha-shv-09-frc1.facebook.com
::1 alpha.vvv.facebook.com
::1 a.ns.facebook.com
::1 api.facebook.com
::1 atlasalpha-shv-09-frc3.facebook.com
::1 atlas.c10r.facebook.com
::1 atlasinyour-shv-05-ash3.facebook.com
::1 atlas-shv-01-prn2.facebook.com
::1 atlas-shv-04-lla1.facebook.com
::1 atlas-shv-05-ash3.facebook.com
::1 atlas-shv-06-ash2.facebook.com
::1 atlas-shv-06-frc1.facebook.com
::1 atlas-shv-07-lla1.facebook.com
::1 atlas-shv-09-frc3.facebook.com
::1 atlas-shv-13-prn1.facebook.com
::1 atlas-www-shv-04-prn2.facebook.com
::1 atlas-www-shv-07-ash4.facebook.com
::1 atlas-www-shv-09-frc1.facebook.com
::1 aura-11-01-snc7.facebook.com
::1 badge.facebook.com
::1 b-api.facebook.com
::1 beta-chat-01-05-ash3.facebook.com
::1 betanet-shv-03-atn1.facebook.com
::1 betanet-shv-03-lla1.facebook.com
::1 betanet-shv-04-prn2.facebook.com
::1 betanet-shv-09-frc1.facebook.com
::1 beta-shv-03-atn1.facebook.com
::1 beta-shv-03-lla1.facebook.com
::1 beta-shv-04-prn2.facebook.com
::1 beta-shv-09-frc1.facebook.com
::1 beta.vvv.facebook.com
::1 b-graph.facebook.com
::1 bidder-shv-05-frc3.facebook.com
::1 bidder-shv-10-frc1.facebook.com
::1 b.ns.facebook.com
::1 channel-proxy-shv-04-frc3.facebook.com
::1 channel-proxy-shv-06-ash2.facebook.com
::1 channel-proxy-shv-07-ash2.facebook.com
::1 channel-proxy-shv-13-prn1.facebook.com
::1 channel-proxy-test-shv-07-ash2.facebook.com
::1 code.facebook.com
::1 connect.facebook.com
::1 dev.vvv.facebook.com
::1 d.vvv.facebook.com
::1 edge-atlas-proxyprotocol-shv-01-ash5.facebook.com
::1 edge-atlas-proxyprotocol-shv-03-ash5.facebook.com
::1 edge-atlas-proxyprotocol-shv-07-ash4.facebook.com
::1 edge-atlas-proxyprotocol-shv-07-frc3.facebook.com
::1 edge-atlas-proxyprotocol-shv-09-frc1.facebook.com
::1 edge-atlas-proxyprotocol-shv-12-frc1.facebook.com
::1 edge-atlas-proxyprotocol-shv-12-frc3.facebook.com
::1 edge-atlas-proxyprotocol-shv-13-frc1.facebook.com
::1 edge-atlas-shv-01-ams2.facebook.com
::1 edge-atlas-shv-01-ams3.facebook.com
::1 edge-atlas-shv-01-ash5.facebook.com
::1 edge-atlas-shv-01-atl1.facebook.com
::1 edge-atlas-shv-01-bru2.facebook.com
::1 edge-atlas-shv-01-cai1.facebook.com
::1 edge-atlas-shv-01-cdg2.facebook.com
::1 edge-atlas-shv-01-dfw1.facebook.com
::1 edge-atlas-shv-01-fra3.facebook.com
::1 edge-atlas-shv-01-gru1.facebook.com
::1 edge-atlas-shv-01-hkg2.facebook.com
::1 edge-atlas-shv-01-iad3.facebook.com
::1 edge-atlas-shv-01-kul1.facebook.com
::1 edge-atlas-shv-01-lax1.facebook.com
::1 edge-atlas-shv-01-lga1.facebook.com
::1 edge-atlas-shv-01-lhr3.facebook.com
::1 edge-atlas-shv-01-mad1.facebook.com
::1 edge-atlas-shv-01-mia1.facebook.com
::1 edge-atlas-shv-01-mxp1.facebook.com
::1 edge-atlas-shv-01-nrt1.facebook.com
::1 edge-atlas-shv-01-ord1.facebook.com
::1 edge-atlas-shv-01-sea1.facebook.com
::1 edge-atlas-shv-01-sin1.facebook.com
::1 edge-atlas-shv-01-sjc2.facebook.com
::1 edge-atlas-shv-01-syd1.facebook.com
::1 edge-atlas-shv-01-vie1.facebook.com
::1 edge-atlas-shv-02-cai1.facebook.com
::1 edge-atlas-shv-02-hkg2.facebook.com
::1 edge-atlas-shv-03-ash5.facebook.com
::1 edge-atlas-shv-03-atn1.facebook.com
::1 edge-atlas-shv-03-hkg1.facebook.com
::1 edge-atlas-shv-03-lla1.facebook.com
::1 edge-atlas-shv-03-prn2.facebook.com
::1 edge-atlas-shv-03-xdc1.facebook.com
::1 edge-atlas-shv-04-hkg1.facebook.com
::1 edge-atlas-shv-04-prn2.facebook.com
::1 edge-atlas-shv-06-atn1.facebook.com
::1 edge-atlas-shv-06-lla1.facebook.com
::1 edge-atlas-shv-07-ash4.facebook.com
::1 edge-atlas-shv-09-frc1.facebook.com
::1 edge-atlas-shv-09-lla1.facebook.com
::1 edge-atlas-shv-12-frc1.facebook.com
::1 edge-atlas-shv-12-frc3.facebook.com
::1 edge-atlas-shv-12-lla1.facebook.com
::1 edge-atlas-shv-12-prn1.facebook.com
::1 edge-atlas-shv-13-frc1.facebook.com
::1 edge-atlas-shv-17-prn1.facebook.com
::1 edge-atlas-shv-18-prn1.facebook.com
::1 edge-chat.facebook.com
::1 edge-liverail-shv-01-ams2.facebook.com
::1 edge-liverail-shv-01-ams3.facebook.com
::1 edge-liverail-shv-01-ash5.facebook.com
::1 edge-liverail-shv-01-atl1.facebook.com
::1 edge-liverail-shv-01-bru2.facebook.com
::1 edge-liverail-shv-01-cai1.facebook.com
::1 edge-liverail-shv-01-cdg2.facebook.com
::1 edge-liverail-shv-01-dfw1.facebook.com
::1 edge-liverail-shv-01-fra3.facebook.com
::1 edge-liverail-shv-01-gru1.facebook.com
::1 edge-liverail-shv-01-hkg2.facebook.com
::1 edge-liverail-shv-01-iad3.facebook.com
::1 edge-liverail-shv-01-kul1.facebook.com
::1 edge-liverail-shv-01-lax1.facebook.com
::1 edge-liverail-shv-01-lga1.facebook.com
::1 edge-liverail-shv-01-lhr3.facebook.com
::1 edge-liverail-shv-01-mad1.facebook.com
::1 edge-liverail-shv-01-mia1.facebook.com
::1 edge-liverail-shv-01-mxp1.facebook.com
::1 edge-liverail-shv-01-nrt1.facebook.com
::1 edge-liverail-shv-01-ord1.facebook.com
::1 edge-liverail-shv-01-sea1.facebook.com
::1 edge-liverail-shv-01-sin1.facebook.com
::1 edge-liverail-shv-01-sjc2.facebook.com
::1 edge-liverail-shv-01-syd1.facebook.com
::1 edge-liverail-shv-01-tpe1.facebook.com
::1 edge-liverail-shv-01-vie1.facebook.com
::1 edge-liverail-shv-02-cai1.facebook.com
::1 edge-liverail-shv-02-hkg2.facebook.com
::1 edge-liverail-shv-03-ash5.facebook.com
::1 edge-liverail-shv-03-atn1.facebook.com
::1 edge-liverail-shv-03-hkg1.facebook.com
::1 edge-liverail-shv-03-lla1.facebook.com
::1 edge-liverail-shv-03-prn2.facebook.com
::1 edge-liverail-shv-03-xdc1.facebook.com
::1 edge-liverail-shv-04-hkg1.facebook.com
::1 edge-liverail-shv-04-prn2.facebook.com
::1 edge-liverail-shv-06-atn1.facebook.com
::1 edge-liverail-shv-06-lla1.facebook.com
::1 edge-liverail-shv-07-ash4.facebook.com
::1 edge-liverail-shv-07-frc3.facebook.com
::1 edge-liverail-shv-09-frc1.facebook.com
::1 edge-liverail-shv-09-lla1.facebook.com
::1 edge-liverail-shv-12-frc1.facebook.com
::1 edge-liverail-shv-12-frc3.facebook.com
::1 edge-liverail-shv-12-lla1.facebook.com
::1 edge-liverail-shv-12-prn1.facebook.com
::1 edge-liverail-shv-13-frc1.facebook.com
::1 edge-liverail-shv-17-prn1.facebook.com
::1 edge-liverail-shv-18-prn1.facebook.com
::1 edge-mqtt.facebook.com
::1 edge-mqtt-shv-01-ams2.facebook.com
::1 edge-mqtt-shv-01-ams3.facebook.com
::1 edge-mqtt-shv-01-ash5.facebook.com
::1 edge-mqtt-shv-01-atl1.facebook.com
::1 edge-mqtt-shv-01-bru2.facebook.com
::1 edge-mqtt-shv-01-cai1.facebook.com
::1 edge-mqtt-shv-01-cdg2.facebook.com
::1 edge-mqtt-shv-01-dfw1.facebook.com
::1 edge-mqtt-shv-01-fra3.facebook.com
::1 edge-mqtt-shv-01-gru1.facebook.com
::1 edge-mqtt-shv-01-hkg2.facebook.com
::1 edge-mqtt-shv-01-iad3.facebook.com
::1 edge-mqtt-shv-01-kul1.facebook.com
::1 edge-mqtt-shv-01-lax1.facebook.com
::1 edge-mqtt-shv-01-lga1.facebook.com
::1 edge-mqtt-shv-01-lhr3.facebook.com
::1 edge-mqtt-shv-01-mad1.facebook.com
::1 edge-mqtt-shv-01-mia1.facebook.com
::1 edge-mqtt-shv-01-mxp1.facebook.com
::1 edge-mqtt-shv-01-nrt1.facebook.com
::1 edge-mqtt-shv-01-ord1.facebook.com
::1 edge-mqtt-shv-01-sea1.facebook.com
::1 edge-mqtt-shv-01-sin1.facebook.com
::1 edge-mqtt-shv-01-sjc2.facebook.com
::1 edge-mqtt-shv-01-syd1.facebook.com
::1 edge-mqtt-shv-01-tpe1.facebook.com
::1 edge-mqtt-shv-01-vie1.facebook.com
::1 edge-mqtt-shv-02-cai1.facebook.com
::1 edge-mqtt-shv-02-hkg2.facebook.com
::1 edge-mqtt-shv-03-ash5.facebook.com
::1 edge-mqtt-shv-03-atn1.facebook.com
::1 edge-mqtt-shv-03-hkg1.facebook.com
::1 edge-mqtt-shv-03-lla1.facebook.com
::1 edge-mqtt-shv-03-prn2.facebook.com
::1 edge-mqtt-shv-03-xdc1.facebook.com
::1 edge-mqtt-shv-04-hkg1.facebook.com
::1 edge-mqtt-shv-04-prn2.facebook.com
::1 edge-mqtt-shv-06-atn1.facebook.com
::1 edge-mqtt-shv-06-lla1.facebook.com
::1 edge-mqtt-shv-07-ash4.facebook.com
::1 edge-mqtt-shv-07-frc3.facebook.com
::1 edge-mqtt-shv-09-lla1.facebook.com
::1 edge-mqtt-shv-12-frc1.facebook.com
::1 edge-mqtt-shv-12-frc3.facebook.com
::1 edge-mqtt-shv-12-lla1.facebook.com
::1 edge-mqtt-shv-12-prn1.facebook.com
::1 edge-mqtt-shv-13-frc1.facebook.com
::1 edge-mqtt-shv-17-prn1.facebook.com
::1 edge-mqtt-shv-18-prn1.facebook.com
::1 edgeray-origin-shv-05-prn2.facebook.com
::1 edgeray-origin-shv-07-lla1.facebook.com
::1 edgeray-origin-shv-09-frc3.facebook.com
::1 edgeray-origin-shv-11-frc3.facebook.com
::1 edgeray-shv-01-ams2.facebook.com
::1 edgeray-shv-01-ams3.facebook.com
::1 edgeray-shv-01-atl1.facebook.com
::1 edgeray-shv-01-bru2.facebook.com
::1 edgeray-shv-01-cdg2.facebook.com
::1 edgeray-shv-01-dfw1.facebook.com
::1 edgeray-shv-01-fra3.facebook.com
::1 edgeray-shv-01-gru1.facebook.com
::1 edgeray-shv-01-iad3.facebook.com
::1 edgeray-shv-01-kul1.facebook.com
::1 edgeray-shv-01-lax1.facebook.com
::1 edgeray-shv-01-lga1.facebook.com
::1 edgeray-shv-01-lhr3.facebook.com
::1 edgeray-shv-01-mad1.facebook.com
::1 edgeray-shv-01-mia1.facebook.com
::1 edgeray-shv-01-mxp1.facebook.com
::1 edgeray-shv-01-ord1.facebook.com
::1 edgeray-shv-01-sea1.facebook.com
::1 edgeray-shv-01-sin1.facebook.com
::1 edgeray-shv-01-sjc2.facebook.com
::1 edgeray-shv-01-syd1.facebook.com
::1 edgeray-shv-01-vie1.facebook.com
::1 edge-snaptu-http-p1-shv-01-ams3.facebook.com
::1 edge-snaptu-http-p1-shv-01-atl1.facebook.com
::1 edge-snaptu-http-p1-shv-01-bru2.facebook.com
::1 edge-snaptu-http-p1-shv-01-cai1.facebook.com
::1 edge-snaptu-http-p1-shv-01-cdg2.facebook.com
::1 edge-snaptu-http-p1-shv-01-dfw1.facebook.com
::1 edge-snaptu-http-p1-shv-01-fra3.facebook.com
::1 edge-snaptu-http-p1-shv-01-gru1.facebook.com
::1 edge-snaptu-http-p1-shv-01-iad3.facebook.com
::1 edge-snaptu-http-p1-shv-01-kul1.facebook.com
::1 edge-snaptu-http-p1-shv-01-lax1.facebook.com
::1 edge-snaptu-http-p1-shv-01-lhr3.facebook.com
::1 edge-snaptu-http-p1-shv-01-mad1.facebook.com
::1 edge-snaptu-http-p1-shv-01-nrt1.facebook.com
::1 edge-snaptu-http-p1-shv-01-ord1.facebook.com
::1 edge-snaptu-http-p1-shv-01-sea1.facebook.com
::1 edge-snaptu-http-p1-shv-01-syd1.facebook.com
::1 edge-snaptu-http-p1-shv-02-cai1.facebook.com
::1 edge-snaptu-tunnel-shv-01-ams3.facebook.com
::1 edge-snaptu-tunnel-shv-01-ash5.facebook.com
::1 edge-snaptu-tunnel-shv-01-atl1.facebook.com
::1 edge-snaptu-tunnel-shv-01-bru2.facebook.com
::1 edge-snaptu-tunnel-shv-01-cai1.facebook.com
::1 edge-snaptu-tunnel-shv-01-cdg2.facebook.com
::1 edge-snaptu-tunnel-shv-01-dfw1.facebook.com
::1 edge-snaptu-tunnel-shv-01-fra3.facebook.com
::1 edge-snaptu-tunnel-shv-01-gru1.facebook.com
::1 edge-snaptu-tunnel-shv-01-hkg2.facebook.com
::1 edge-snaptu-tunnel-shv-01-iad3.facebook.com
::1 edge-snaptu-tunnel-shv-01-kul1.facebook.com
::1 edge-snaptu-tunnel-shv-01-lax1.facebook.com
::1 edge-snaptu-tunnel-shv-01-lhr3.facebook.com
::1 edge-snaptu-tunnel-shv-01-mad1.facebook.com
::1 edge-snaptu-tunnel-shv-01-nrt1.facebook.com
::1 edge-snaptu-tunnel-shv-01-ord1.facebook.com
::1 edge-snaptu-tunnel-shv-01-sea1.facebook.com
::1 edge-snaptu-tunnel-shv-01-syd1.facebook.com
::1 edge-snaptu-tunnel-shv-02-cai1.facebook.com
::1 edge-star-shv-12-frc3.facebook.com
::1 instagram.c10r.facebook.com
::1 l.facebook.com
::1 liverail.c10r.facebook.com
::1 lm.facebook.com
::1 m.facebook.com
::1 mqtt.c10r.facebook.com
::1 mqtt.vvv.facebook.com
::1 pixel.facebook.com
::1 profile.ak.facebook.com.edgesuite.net
::1 research.facebook.com
::1 snaptu-d-shv-05-frc3.facebook.com
::1 snaptu-d-shv-10-frc1.facebook.com
::1 s-static.ak.facebook.com.edgekey.net
::1 star.c10r.facebook.com
::1 star.facebook.com
::1 star-mini.c10r.facebook.com
::1 static.ak.facebook.com
::1 static.ak.facebook.com.edgesuite.net
::1 staticxx.facebook.com
::1 webdav.facebook.com
::1 z-m.c10r.facebook.com
::1 z-m.facebook.com
::1 edge-sonar-shv-01-ams2.fbcdn.net
::1 edge-sonar-shv-01-ams3.fbcdn.net
::1 edge-sonar-shv-01-ash5.fbcdn.net
::1 edge-sonar-shv-01-atl1.fbcdn.net
::1 edge-sonar-shv-01-bru2.fbcdn.net
::1 edge-sonar-shv-01-cai1.fbcdn.net
::1 edge-sonar-shv-01-cdg2.fbcdn.net
::1 edge-sonar-shv-01-dfw1.fbcdn.net
::1 edge-sonar-shv-01-fra3.fbcdn.net
::1 edge-sonar-shv-01-gru1.fbcdn.net
::1 edge-sonar-shv-01-iad3.fbcdn.net
::1 edge-sonar-shv-01-kul1.fbcdn.net
::1 edge-sonar-shv-01-lax1.fbcdn.net
::1 edge-sonar-shv-01-lga1.fbcdn.net
::1 edge-sonar-shv-01-lhr3.fbcdn.net
::1 edge-sonar-shv-01-mad1.fbcdn.net
::1 edge-sonar-shv-01-mia1.fbcdn.net
::1 edge-sonar-shv-01-mrs1.fbcdn.net
::1 edge-sonar-shv-01-mxp1.fbcdn.net
::1 edge-sonar-shv-01-nrt1.fbcdn.net
::1 edge-sonar-shv-01-ord1.fbcdn.net
::1 edge-sonar-shv-01-sea1.fbcdn.net
::1 edge-sonar-shv-01-sin1.fbcdn.net
::1 edge-sonar-shv-01-sjc2.fbcdn.net
::1 edge-sonar-shv-01-syd1.fbcdn.net
::1 edge-sonar-shv-01-tpe1.fbcdn.net
::1 edge-sonar-shv-01-vie1.fbcdn.net
::1 edge-sonar-shv-02-cai1.fbcdn.net
::1 edge-sonar-shv-02-hkg2.fbcdn.net
::1 edge-sonar-shv-03-ash5.fbcdn.net
::1 edge-sonar-shv-03-atn1.fbcdn.net
::1 edge-sonar-shv-03-hkg1.fbcdn.net
::1 edge-sonar-shv-03-lla1.fbcdn.net
::1 edge-sonar-shv-03-prn2.fbcdn.net
::1 edge-sonar-shv-03-xdc1.fbcdn.net
::1 edge-sonar-shv-04-hkg1.fbcdn.net
::1 edge-sonar-shv-04-prn2.fbcdn.net
::1 edge-sonar-shv-06-atn1.fbcdn.net
::1 edge-sonar-shv-06-lla1.fbcdn.net
::1 edge-sonar-shv-07-ash4.fbcdn.net
::1 edge-sonar-shv-07-frc3.fbcdn.net
::1 edge-sonar-shv-09-frc1.fbcdn.net
::1 edge-sonar-shv-09-lla1.fbcdn.net
::1 edge-sonar-shv-12-frc1.fbcdn.net
::1 edge-sonar-shv-12-frc3.fbcdn.net
::1 edge-sonar-shv-12-lla1.fbcdn.net
::1 edge-sonar-shv-12-prn1.fbcdn.net
::1 edge-sonar-shv-13-frc1.fbcdn.net
::1 edge-sonar-shv-17-prn1.fbcdn.net
::1 edge-sonar-shv-18-prn1.fbcdn.net
::1 external-iad3-1.xx.fbcdn.net
::1 external.fsjc1-2.fna.fbcdn.net
::1 fdda274d380ki4frcgi-rumjfjai1460158783-sonar.xx.fbcdn.net
::1 herningrideklub.netscontent-a-ams.xx.fbcdn.net
::1 ncontent.xx.fbcdn.net
::1 origincache-ash.t.fbcdn.net
::1 origincache-frc.t.fbcdn.net
::1 origincache-prn.t.fbcdn.net
::1 origincache-tf.t.fbcdn.net
::1 origincache-tl.t.fbcdn.net
::1 origincache-xtf.fbcdn.net
::1 origincache-xtl.fbcdn.net
::1 origincache-xx-shv-05-atn1.fbcdn.net
::1 origincache-xx-shv-05-frc3.fbcdn.net
::1 origincache-xx-shv-05-prn2.fbcdn.net
::1 origincache-xx-shv-06-ash3.fbcdn.net
::1 origincache-xx-shv-06-ash4.fbcdn.net
::1 origincache-xx-shv-07-ash2.fbcdn.net
::1 origincache-xx-shv-07-atn1.fbcdn.net
::1 origincache-xx-shv-08-ash2.fbcdn.net
::1 origincache-xx-shv-08-frc3.fbcdn.net
::1 origincache-xx-shv-08-prn2.fbcdn.net
::1 origincache-xx-shv-09-frc3.fbcdn.net
::1 origincache-xx-shv-09-prn2.fbcdn.net
::1 origincache-xx-shv-13-prn1.fbcdn.net
::1 photos-a-ord.xx.fbcdn.net
::1 photos-a.xx.fbcdn.net
::1 photos-b-ord.xx.fbcdn.net
::1 photos-b.xx.fbcdn.net
::1 profile-a-atl.xx.fbcdn.net
::1 profile-a-dfw.xx.fbcdn.net
::1 profile-a-iad.xx.fbcdn.net
::1 profile-a-lax.xx.fbcdn.net
::1 profile-a-lga.xx.fbcdn.net
::1 profile-a-mia.xx.fbcdn.net
::1 profile-a-ord.xx.fbcdn.net
::1 profile-a-sea.xx.fbcdn.net
::1 profile-a-sjc.xx.fbcdn.net
::1 profile-a.xx.fbcdn.net
::1 profile-b-dfw.xx.fbcdn.net
::1 profile-b-iad.xx.fbcdn.net
::1 profile-b-lga.xx.fbcdn.net
::1 profile-b-mia.xx.fbcdn.net
::1 profile-b-ord.xx.fbcdn.net
::1 profile-b-sjc.xx.fbcdn.net
::1 profile-b.xx.fbcdn.net
::1 profile.ak.fbcdn.net
::1 profile.xx.fbcdn.net
::1 scontent-1.2914.fna.fbcdn.net
::1 scontent-2.2914.fna.fbcdn.net
::1 scontent-a-ams.xx.fbcdn.net
::1 scontent-a-atl.xx.fbcdn.net
::1 scontent-a-cdg.xx.fbcdn.net
::1 scontent-a-dfw.xx.fbcdn.net
::1 scontent-a-fra.xx.fbcdn.net
::1 scontent-a-gru.xx.fbcdn.net
::1 scontent-a-iad.xx.fbcdn.net
::1 scontent-a-lax.xx.fbcdn.net
::1 scontent-a-lga.xx.fbcdn.net
::1 scontent-a-lhr.xx.fbcdn.net
::1 scontent-a-mad.xx.fbcdn.net
::1 scontent-a-mia.xx.fbcdn.net
::1 scontent-a-mxp.xx.fbcdn.net
::1 scontent-a-ord.xx.fbcdn.net
::1 scontent-a-pao.xx.fbcdn.net
::1 scontent-a-sea.xx.fbcdn.net
::1 scontent-a-sin.xx.fbcdn.net
::1 scontent-a-sjc.xx.fbcdn.net
::1 scontent-a-vie.xx.fbcdn.net
::1 scontent-a.xx.fbcdn.net
::1 scontent-ams.xx.fbcdn.net
::1 scontent-atl.xx.fbcdn.net
::1 scontent-b-ams.xx.fbcdn.net
::1 scontent-b-atl.xx.fbcdn.net
::1 scontent-b-cdg.xx.fbcdn.net
::1 scontent-b-dfw.xx.fbcdn.net
::1 scontent-b-fra.xx.fbcdn.net
::1 scontent-b-gru.xx.fbcdn.net
::1 scontent-b-hkg.xx.fbcdn.net
::1 scontent-b-lax.xx.fbcdn.net
::1 scontent-b-lga.xx.fbcdn.net
::1 scontent-b-lhr.xx.fbcdn.net
::1 scontent-b-mad.xx.fbcdn.net
::1 scontent-b-mia.xx.fbcdn.net
::1 scontent-b-mxp.xx.fbcdn.net
::1 scontent-b-ord.xx.fbcdn.net
::1 scontent-b-pao.xx.fbcdn.net
::1 scontent-b-sea.xx.fbcdn.net
::1 scontent-b-sin.xx.fbcdn.net
::1 scontent-b-sjc.xx.fbcdn.net
::1 scontent-b-vie.xx.fbcdn.net
::1 scontent-b.xx.fbcdn.net
::1 scontent-cdg.xx.fbcdn.net
::1 scontent-dfw.xx.fbcdn.net
::1 scontent-fra.xx.fbcdn.net
::1 scontent-gru.xx.fbcdn.net
::1 scontent-iad3-1.xx.fbcdn.net
::1 scontent-lax.xx.fbcdn.net
::1 scontent-lax3-1.xx.fbcdn.net
::1 scontent-lga.xx.fbcdn.net
::1 scontent-lga3-1.xx.fbcdn.net
::1 scontent-lhr.xx.fbcdn.net
::1 scontent-mia.xx.fbcdn.net
::1 scontent-mxp.xx.fbcdn.net
::1 scontent-ord.xx.fbcdn.net
::1 scontent-sea.xx.fbcdn.net
::1 scontent-sin.xx.fbcdn.net
::1 scontent-sjc.xx.fbcdn.net
::1 scontent-sjc2-1.xx.fbcdn.net
::1 scontent-vie.xx.fbcdn.net
::1 scontent.fsjc1-2.fna.fbcdn.net
::1 scontent.fsnc1-1.fna.fbcdn.net
::1 scontent.xx.fbcdn.net
::1 sonar-iad.xx.fbcdn.net
::1 sphotos-a-ams.xx.fbcdn.net
::1 sphotos-a-atl.xx.fbcdn.net
::1 sphotos-a-cdg.xx.fbcdn.net
::1 sphotos-a-dfw.xx.fbcdn.net
::1 sphotos-a-iad.xx.fbcdn.net
::1 sphotos-a-lax.xx.fbcdn.net
::1 sphotos-a-lga.xx.fbcdn.net
::1 sphotos-a-lhr.xx.fbcdn.net
::1 sphotos-a-mad.xx.fbcdn.net
::1 sphotos-a-mia.xx.fbcdn.net
::1 sphotos-a-mxp.xx.fbcdn.net
::1 sphotos-a-ord.xx.fbcdn.net
::1 sphotos-a-pao.xx.fbcdn.net
::1 sphotos-a-sea.xx.fbcdn.net
::1 sphotos-a-sjc.xx.fbcdn.net
::1 sphotos-a-vie.xx.fbcdn.net
::1 sphotos-a.xx.fbcdn.net
::1 sphotos-b-ams.xx.fbcdn.net
::1 sphotos-b-atl.xx.fbcdn.net
::1 sphotos-b-cdg.xx.fbcdn.net
::1 sphotos-b-dfw.xx.fbcdn.net
::1 sphotos-b-iad.xx.fbcdn.net
::1 sphotos-b-lax.xx.fbcdn.net
::1 sphotos-b-lga.xx.fbcdn.net
::1 sphotos-b-lhr.xx.fbcdn.net
::1 sphotos-b-mad.xx.fbcdn.net
::1 sphotos-b-mia.xx.fbcdn.net
::1 sphotos-b-mxp.xx.fbcdn.net
::1 sphotos-b-ord.xx.fbcdn.net
::1 sphotos-b-pao.xx.fbcdn.net
::1 sphotos-b-sea.xx.fbcdn.net
::1 sphotos-b-sjc.xx.fbcdn.net
::1 sphotos-b-vie.xx.fbcdn.net
::1 sphotos-b.xx.fbcdn.net
::1 sphotos.xx.fbcdn.net
::1 sphotosbord.xx.fbcdn.net
::1 static.xx.fbcdn.net
::1 video-iad3-1.xx.fbcdn.net
::1 vthumb.xx.fbcdn.net
::1 xx-fbcdn-shv-01-ams2.fbcdn.net
::1 xx-fbcdn-shv-01-ams3.fbcdn.net
::1 xx-fbcdn-shv-01-atl1.fbcdn.net
::1 xx-fbcdn-shv-01-bru2.fbcdn.net
::1 xx-fbcdn-shv-01-cdg2.fbcdn.net
::1 xx-fbcdn-shv-01-dfw1.fbcdn.net
::1 xx-fbcdn-shv-01-fra3.fbcdn.net
::1 xx-fbcdn-shv-01-gru1.fbcdn.net
::1 xx-fbcdn-shv-01-hkg2.fbcdn.net
::1 xx-fbcdn-shv-01-iad3.fbcdn.net
::1 xx-fbcdn-shv-01-lax1.fbcdn.net
::1 xx-fbcdn-shv-01-lga1.fbcdn.net
::1 xx-fbcdn-shv-01-lhr3.fbcdn.net
::1 xx-fbcdn-shv-01-mad1.fbcdn.net
::1 xx-fbcdn-shv-01-mia1.fbcdn.net
::1 xx-fbcdn-shv-01-mrs1.fbcdn.net
::1 xx-fbcdn-shv-01-mxp1.fbcdn.net
::1 xx-fbcdn-shv-01-nrt1.fbcdn.net
::1 xx-fbcdn-shv-01-ord1.fbcdn.net
::1 xx-fbcdn-shv-01-sea1.fbcdn.net
::1 xx-fbcdn-shv-01-sin1.fbcdn.net
::1 xx-fbcdn-shv-01-sjc2.fbcdn.net
::1 xx-fbcdn-shv-01-vie1.fbcdn.net
::1 xx-fbcdn-shv-02-cai1.fbcdn.net
::1 xx-fbcdn-shv-03-ash5.fbcdn.net
::1 xx-fbcdn-shv-04-hkg1.fbcdn.net
::1 xx-fbcdn-shv-04-prn2.fbcdn.net
::1 z-1-scontent-sjc2-1.xx.fbcdn.net
::1 z-1-scontent.xx.fbcdn.net
::1 api.instagram.com
::1 black.ish.instagram.com
::1 i.instagram.com
::1 instagram-shv-01-ams2.fbcdn.net
::1 instagram-shv-01-ams3.fbcdn.net
::1 instagram-shv-01-ash5.fbcdn.net
::1 instagram-shv-01-atl1.fbcdn.net
::1 instagram-shv-01-bru2.fbcdn.net
::1 instagram-shv-01-cai1.fbcdn.net
::1 instagram-shv-01-cdg2.fbcdn.net
::1 instagram-shv-01-dfw1.fbcdn.net
::1 instagram-shv-01-fra3.fbcdn.net
::1 instagram-shv-01-gru1.fbcdn.net
::1 instagram-shv-01-hkg2.fbcdn.net
::1 instagram-shv-01-iad3.fbcdn.net
::1 instagram-shv-01-kul1.fbcdn.net
::1 instagram-shv-01-lax1.fbcdn.net
::1 instagram-shv-01-lga1.fbcdn.net
::1 instagram-shv-01-lhr3.fbcdn.net
::1 instagram-shv-01-mad1.fbcdn.net
::1 instagram-shv-01-mia1.fbcdn.net
::1 instagram-shv-01-mxp1.fbcdn.net
::1 instagram-shv-01-nrt1.fbcdn.net
::1 instagram-shv-01-ord1.fbcdn.net
::1 instagram-shv-01-sea1.fbcdn.net
::1 instagram-shv-01-sin1.fbcdn.net
::1 instagram-shv-01-sjc2.fbcdn.net
::1 instagram-shv-01-syd1.fbcdn.net
::1 instagram-shv-01-tpe1.fbcdn.net
::1 instagram-shv-01-vie1.fbcdn.net
::1 instagram-shv-02-cai1.fbcdn.net
::1 instagram-shv-02-hkg2.fbcdn.net
::1 instagram-shv-03-ash5.fbcdn.net
::1 instagram-shv-03-atn1.fbcdn.net
::1 instagram-shv-03-hkg1.fbcdn.net
::1 instagram-shv-03-lla1.fbcdn.net
::1 instagram-shv-03-prn2.fbcdn.net
::1 instagram-shv-03-xdc1.fbcdn.net
::1 instagram-shv-04-hkg1.fbcdn.net
::1 instagram-shv-06-atn1.fbcdn.net
::1 instagram-shv-06-lla1.fbcdn.net
::1 instagram-shv-07-ash4.fbcdn.net
::1 instagram-shv-07-frc3.fbcdn.net
::1 instagram-shv-09-frc1.fbcdn.net
::1 instagram-shv-09-lla1.fbcdn.net
::1 instagram-shv-12-frc1.fbcdn.net
::1 instagram-shv-12-frc3.fbcdn.net
::1 instagram-shv-12-lla1.fbcdn.net
::1 instagram-shv-12-prn1.fbcdn.net
::1 instagram-shv-13-frc1.fbcdn.net
::1 instagram-shv-17-prn1.fbcdn.net
::1 instagram-shv-18-prn1.fbcdn.net
::1 instagram.com
::1 instagramstatic-a.akamaihd.net
::1 instagramstatic-a.akamaihd.net.edgesuite.net
::1 logger.instagram.com
::1 platform.instagram.com
::1 scontent-iad3-1.cdninstagram.com
::1 scontent.cdninstagram.com
::1 telegraph-ash.instagram.com
::1 white.ish.instagram.com
::1 www.instagram.com
::1 ae0.bb01.ams2.tfbnw.net
::1 ae0.bb01.atl1.tfbnw.net
::1 ae0.bb01.bos2.tfbnw.net
::1 ae0.bb01.hkg1.tfbnw.net
::1 ae0.bb01.hnd1.tfbnw.net
::1 ae0.bb01.lhr2.tfbnw.net
::1 ae0.bb01.lla1.tfbnw.net
::1 ae0.bb01.mia1.tfbnw.net
::1 ae0.bb01.nrt1.tfbnw.net
::1 ae0.bb01.sin1.tfbnw.net
::1 ae0.bb02.ams2.tfbnw.net
::1 ae0.bb02.atl1.tfbnw.net
::1 ae0.bb02.bos2.tfbnw.net
::1 ae0.bb02.hkg1.tfbnw.net
::1 ae0.bb02.lhr2.tfbnw.net
::1 ae0.bb02.lla1.tfbnw.net
::1 ae0.bb02.mia1.tfbnw.net
::1 ae0.bb02.sin1.tfbnw.net
::1 ae0.bb03.atn1.tfbnw.net
::1 ae0.bb03.frc3.tfbnw.net
::1 ae0.bb03.lla1.tfbnw.net
::1 ae0.bb03.prn2.tfbnw.net
::1 ae0.bb03.sjc1.tfbnw.net
::1 ae0.bb04.atn1.tfbnw.net
::1 ae0.bb04.frc3.tfbnw.net
::1 ae0.bb04.lla1.tfbnw.net
::1 ae0.bb04.prn2.tfbnw.net
::1 ae0.bb04.sjc1.tfbnw.net
::1 ae0.bb05.frc3.tfbnw.net
::1 ae0.bb05.lla1.tfbnw.net
::1 ae0.bb05.prn2.tfbnw.net
::1 ae0.bb06.frc3.tfbnw.net
::1 ae0.bb06.lla1.tfbnw.net
::1 ae0.bb07.lla1.tfbnw.net
::1 ae0.br01.arn2.tfbnw.net
::1 ae0.br01.bru2.tfbnw.net
::1 ae0.br01.cai1.tfbnw.net
::1 ae0.br01.gru1.tfbnw.net
::1 ae0.br01.mad1.tfbnw.net
::1 ae0.br01.mrs1.tfbnw.net
::1 ae0.br01.mxp1.tfbnw.net
::1 ae0.br01.syd1.tfbnw.net
::1 ae0.br01.tpe1.tfbnw.net
::1 ae0.br01.vie1.tfbnw.net
::1 ae0.dr01.prn2.tfbnw.net
::1 ae0.dr01.snc1.tfbnw.net
::1 ae0.dr02.prn2.tfbnw.net
::1 ae0.dr02.snc1.tfbnw.net
::1 ae0.dr03.ash3.tfbnw.net
::1 ae0.dr03.prn2.tfbnw.net
::1 ae0.dr04.ash3.tfbnw.net
::1 ae0.dr04.prn2.tfbnw.net
::1 ae0.lr01.ash3.tfbnw.net
::1 ae0.lr02.ash3.tfbnw.net
::1 ae0.pr01.ams2.tfbnw.net
::1 ae0.pr01.ams3.tfbnw.net
::1 ae0.pr01.dfw1.tfbnw.net
::1 ae0.pr01.fra2.tfbnw.net
::1 ae0.pr01.lhr2.tfbnw.net
::1 ae0.pr01.mia1.tfbnw.net
::1 ae0.pr02.dfw1.tfbnw.net
::1 ae0.pr02.fra2.tfbnw.net
::1 ae0.pr02.iad3.tfbnw.net
::1 ae0.pr02.lax1.tfbnw.net
::1 ae0.pr02.lga1.tfbnw.net
::1 ae0.pr02.mia1.tfbnw.net
::1 ae0.pr02.ord1.tfbnw.net
::1 ae0.pr03.sjc1.tfbnw.net
::1 ae0.pr04.sjc1.tfbnw.net
::1 ae10.bb01.atl1.tfbnw.net
::1 ae10.bb01.lhr2.tfbnw.net
::1 ae10.bb01.lla1.tfbnw.net
::1 ae10.bb01.mia1.tfbnw.net
::1 ae10.bb01.sin1.tfbnw.net
::1 ae10.bb02.atl1.tfbnw.net
::1 ae10.bb02.hkg1.tfbnw.net
::1 ae10.bb02.lhr2.tfbnw.net
::1 ae10.bb02.lla1.tfbnw.net
::1 ae10.bb02.mia1.tfbnw.net
::1 ae10.bb02.sin1.tfbnw.net
::1 ae10.bb03.atn1.tfbnw.net
::1 ae10.bb03.frc3.tfbnw.net
::1 ae10.bb03.lla1.tfbnw.net
::1 ae10.bb03.sjc1.tfbnw.net
::1 ae10.bb04.atn1.tfbnw.net
::1 ae10.bb04.frc3.tfbnw.net
::1 ae10.bb04.lla1.tfbnw.net
::1 ae10.bb04.sjc1.tfbnw.net
::1 ae10.bb05.lla1.tfbnw.net
::1 ae10.bb06.frc3.tfbnw.net
::1 ae10.bb06.lla1.tfbnw.net
::1 ae10.br01.bru2.tfbnw.net
::1 ae10.br01.kul1.tfbnw.net
::1 ae10.br01.mad1.tfbnw.net
::1 ae10.br01.mxp1.tfbnw.net
::1 ae10.br01.tpe1.tfbnw.net
::1 ae10.br02.vie1.tfbnw.net
::1 ae10.dr01.frc1.tfbnw.net
::1 ae10.dr02.frc1.tfbnw.net
::1 ae10.dr02.prn1.tfbnw.net
::1 ae10.dr05.prn1.tfbnw.net
::1 ae10.dr06.prn1.tfbnw.net
::1 ae10.pr01.atl1.tfbnw.net
::1 ae10.pr01.dfw1.tfbnw.net
::1 ae10.pr01.fra2.tfbnw.net
::1 ae10.pr01.lax1.tfbnw.net
::1 ae10.pr01.mia1.tfbnw.net
::1 ae10.pr01.nrt1.tfbnw.net
::1 ae10.pr01.sin1.tfbnw.net
::1 ae10.pr02.atl1.tfbnw.net
::1 ae10.pr02.fra2.tfbnw.net
::1 ae10.pr02.sin1.tfbnw.net
::1 ae11.bb01.ams2.tfbnw.net
::1 ae11.bb01.atl1.tfbnw.net
::1 ae11.bb01.lhr2.tfbnw.net
::1 ae11.bb01.mia1.tfbnw.net
::1 ae11.bb01.nrt1.tfbnw.net
::1 ae11.bb01.sin1.tfbnw.net
::1 ae11.bb02.ams2.tfbnw.net
::1 ae11.bb02.atl1.tfbnw.net
::1 ae11.bb02.hkg1.tfbnw.net
::1 ae11.bb02.lhr2.tfbnw.net
::1 ae11.bb02.mia1.tfbnw.net
::1 ae11.bb02.sin1.tfbnw.net
::1 ae11.bb03.atn1.tfbnw.net
::1 ae11.bb03.frc3.tfbnw.net
::1 ae11.bb03.prn2.tfbnw.net
::1 ae11.bb03.sjc1.tfbnw.net
::1 ae11.bb04.atn1.tfbnw.net
::1 ae11.bb04.frc3.tfbnw.net
::1 ae11.bb04.prn2.tfbnw.net
::1 ae11.bb04.sjc1.tfbnw.net
::1 ae11.bb05.lla1.tfbnw.net
::1 ae11.bb06.frc3.tfbnw.net
::1 ae11.bb06.lla1.tfbnw.net
::1 ae11.br01.kul1.tfbnw.net
::1 ae11.br01.mad1.tfbnw.net
::1 ae11.br01.tpe1.tfbnw.net
::1 ae11.br01.vie1.tfbnw.net
::1 ae11.br02.mxp1.tfbnw.net
::1 ae11.br02.vie1.tfbnw.net
::1 ae11.dr01.atn1.tfbnw.net
::1 ae11.dr01.frc1.tfbnw.net
::1 ae11.dr01.snc1.tfbnw.net
::1 ae11.dr02.atn1.tfbnw.net
::1 ae11.dr02.frc1.tfbnw.net
::1 ae11.dr02.snc1.tfbnw.net
::1 ae11.dr03.atn1.tfbnw.net
::1 ae11.dr03.frc1.tfbnw.net
::1 ae11.dr04.atn1.tfbnw.net
::1 ae11.dr04.frc1.tfbnw.net
::1 ae11.pr01.atl1.tfbnw.net
::1 ae11.pr01.dfw1.tfbnw.net
::1 ae11.pr01.hkg1.tfbnw.net
::1 ae11.pr01.lga1.tfbnw.net
::1 ae11.pr01.lhr2.tfbnw.net
::1 ae11.pr01.lhr3.tfbnw.net
::1 ae11.pr01.ord1.tfbnw.net
::1 ae11.pr02.atl1.tfbnw.net
::1 ae11.pr02.cdg1.tfbnw.net
::1 ae11.pr02.fra2.tfbnw.net
::1 ae11.pr02.lax1.tfbnw.net
::1 ae12.bb01.ams2.tfbnw.net
::1 ae12.bb01.lhr2.tfbnw.net
::1 ae12.bb01.mia1.tfbnw.net
::1 ae12.bb01.nrt1.tfbnw.net
::1 ae12.bb02.ams2.tfbnw.net
::1 ae12.bb02.atl1.tfbnw.net
::1 ae12.bb02.lhr2.tfbnw.net
::1 ae12.bb02.mia1.tfbnw.net
::1 ae12.bb03.atn1.tfbnw.net
::1 ae12.bb03.frc3.tfbnw.net
::1 ae12.bb03.prn2.tfbnw.net
::1 ae12.bb03.sjc1.tfbnw.net
::1 ae12.bb04.atn1.tfbnw.net
::1 ae12.bb04.frc3.tfbnw.net
::1 ae12.bb04.prn2.tfbnw.net
::1 ae12.bb04.sjc1.tfbnw.net
::1 ae12.bb05.lla1.tfbnw.net
::1 ae12.bb06.frc3.tfbnw.net
::1 ae12.bb06.lla1.tfbnw.net
::1 ae12.br01.kul1.tfbnw.net
::1 ae12.br01.mad1.tfbnw.net
::1 ae12.br01.mxp1.tfbnw.net
::1 ae12.br01.vie1.tfbnw.net
::1 ae12.br02.mxp1.tfbnw.net
::1 ae12.br02.vie1.tfbnw.net
::1 ae12.dr01.atn1.tfbnw.net
::1 ae12.dr01.frc1.tfbnw.net
::1 ae12.dr01.snc1.tfbnw.net
::1 ae12.dr02.atn1.tfbnw.net
::1 ae12.dr02.frc1.tfbnw.net
::1 ae12.dr02.snc1.tfbnw.net
::1 ae12.dr03.atn1.tfbnw.net
::1 ae12.dr03.frc1.tfbnw.net
::1 ae12.dr04.atn1.tfbnw.net
::1 ae12.dr04.frc1.tfbnw.net
::1 ae12.pr01.ams2.tfbnw.net
::1 ae12.pr01.ams3.tfbnw.net
::1 ae12.pr01.atl1.tfbnw.net
::1 ae12.pr01.hkg1.tfbnw.net
::1 ae12.pr01.lga1.tfbnw.net
::1 ae12.pr01.lhr2.tfbnw.net
::1 ae12.pr01.mia1.tfbnw.net
::1 ae12.pr01.ord1.tfbnw.net
::1 ae12.pr01.sea1.tfbnw.net
::1 ae12.pr01.sin1.tfbnw.net
::1 ae12.pr02.atl1.tfbnw.net
::1 ae12.pr02.sea1.tfbnw.net
::1 ae13.bb01.atl1.tfbnw.net
::1 ae13.bb01.lhr2.tfbnw.net
::1 ae13.bb01.mia1.tfbnw.net
::1 ae13.bb01.nrt1.tfbnw.net
::1 ae13.bb01.sin1.tfbnw.net
::1 ae13.bb02.lhr2.tfbnw.net
::1 ae13.bb02.mia1.tfbnw.net
::1 ae13.bb03.atn1.tfbnw.net
::1 ae13.bb03.frc3.tfbnw.net
::1 ae13.bb03.prn2.tfbnw.net
::1 ae13.bb03.sjc1.tfbnw.net
::1 ae13.bb04.atn1.tfbnw.net
::1 ae13.bb04.frc3.tfbnw.net
::1 ae13.bb04.prn2.tfbnw.net
::1 ae13.bb04.sjc1.tfbnw.net
::1 ae13.bb05.lla1.tfbnw.net
::1 ae13.bb06.lla1.tfbnw.net
::1 ae13.br01.mad1.tfbnw.net
::1 ae13.br01.mxp1.tfbnw.net
::1 ae13.br01.tpe1.tfbnw.net
::1 ae13.br01.vie1.tfbnw.net
::1 ae13.br02.mxp1.tfbnw.net
::1 ae13.br02.vie1.tfbnw.net
::1 ae13.dr01.atn1.tfbnw.net
::1 ae13.dr01.frc1.tfbnw.net
::1 ae13.dr02.atn1.tfbnw.net
::1 ae13.dr02.frc1.tfbnw.net
::1 ae13.dr03.atn1.tfbnw.net
::1 ae13.dr03.frc1.tfbnw.net
::1 ae13.dr04.atn1.tfbnw.net
::1 ae13.dr04.frc1.tfbnw.net
::1 ae13.dr05.prn1.tfbnw.net
::1 ae13.pr01.ams2.tfbnw.net
::1 ae13.pr01.atl1.tfbnw.net
::1 ae13.pr01.cdg1.tfbnw.net
::1 ae13.pr01.hkg1.tfbnw.net
::1 ae13.pr01.iad3.tfbnw.net
::1 ae13.pr01.lhr2.tfbnw.net
::1 ae13.pr01.mia1.tfbnw.net
::1 ae13.pr01.ord1.tfbnw.net
::1 ae13.pr01.sea1.tfbnw.net
::1 connect.facebook.net.edgekey.net
::1 ct-m-fbx.fbsbx.com
::1 facebook-web-clients.appspot.com
::1 fb.me
::1 fbcdn-profile-a.akamaihd.net
::1 h-ct-m-fbx.fbsbx.com.online-metrix.net
::1 sac-h-ct-m-fbx.fbsbx.com.online-metrix.net

